%YAML 1.1
%TAG !u! tag:unity3d.com,2011:
--- !u!114 &11400000
MonoBehaviour:
  m_ObjectHideFlags: 0
  m_CorrespondingSourceObject: {fileID: 0}
  m_PrefabInternal: {fileID: 0}
  m_GameObject: {fileID: 0}
  m_Enabled: 1
  m_EditorHideFlags: 0
  m_Script: {fileID: 11500000, guid: 1b35043835a07514598322b9a2892f64, type: 3}
  m_Name: TranslationGroup LAC
  m_EditorClassIdentifier: 
  mRNA: {fileID: 11400000, guid: bbc332da11521e84cb6830e60aee4663, type: 2}
  proteins:
  - {fileID: 11400000, guid: e579e5a102a975b4592385260773325d, type: 2}
  - {fileID: 11400000, guid: 511f6cf1f9d81784ab50a27212efb40e, type: 2}
  - {fileID: 11400000, guid: 79e406cbf876463418fd0f9d81aa9291, type: 2}
