----------------- Session start on 2020-03-19 10:35:29.0162 -----------------
----------------- Unity Version: 2018.2.20f1 ------------------ Plugin Version: 1.2.3.812 --------
2020-03-19 10:35:28.9873 FATAL TobiiProVRAnalytics.Metrics.VisualizationSurface CreateVisualizationSurface Missing component System.Exception: Tracked object lacY_site must have a mesh and a mesh renderer.
2020-03-19 10:35:29.0247 ERROR TobiiProVRAnalytics.Common.UnityExceptionLogger DelegateLog 2020-03-19 10:35:28.9873 FATAL TobiiProVRAnalytics.Metrics.VisualizationSurface CreateVisualizationSurface Missing component System.Exception: Tracked object lacY_site must have a mesh and a mesh renderer.
UnityEngine.Debug:LogError(Object)
TobiiProVRAnalytics.TobiiProVRAnalytics.Core.UnityLogTarget:Write(LogEventInfo)
NLog.Targets.Target:Write(AsyncLogEventInfo)
NLog.Targets.Target:WriteAsyncThreadSafe(AsyncLogEventInfo)
NLog.Targets.Target:WriteAsyncLogEvent(AsyncLogEventInfo)
NLog.LoggerImpl:WriteToTargetWithFilterChain(Target, FilterResult, LogEventInfo, AsyncContinuation)
NLog.LoggerImpl:Write(Type, TargetWithFilterChain, LogEventInfo, LogFactory)
NLog.Logger:WriteToTargets(LogLevel, Exception, String, Object[])
NLog.Logger:Fatal(Exception, String)
Tobii.VRAnalytics.Core.Logging.LogFacade:Fatal(Exception, String, String)
TobiiProVRAnalytics.Metrics.VisualizationSurface:CreateVisualizationSurface(TobiiProVRAnalytics_TrackedObject)
TobiiProVRAnalytics.TobiiProVRAnalytics_TrackedObject:qjqHmXhfJg()
TobiiProVRAnalytics.TobiiProVRAnalytics_TrackedObject:Start()
 
2020-03-19 10:35:29.0247 FATAL TobiiProVRAnalytics.Common.UnityExceptionLogger DelegateLog Exception: Tracked object lacY_site must have a mesh and a mesh renderer.
TobiiProVRAnalytics.Metrics.VisualizationSurface.CreateVisualizationSurface (TobiiProVRAnalytics.TobiiProVRAnalytics_TrackedObject trackedObject) (at <df756da527ff44d696a3ea605bc22357>:0)
TobiiProVRAnalytics.TobiiProVRAnalytics_TrackedObject.qjqHmXhfJg () (at <df756da527ff44d696a3ea605bc22357>:0)
TobiiProVRAnalytics.TobiiProVRAnalytics_TrackedObject.Start () (at <df756da527ff44d696a3ea605bc22357>:0)
 
2020-03-19 10:35:29.0247 FATAL TobiiProVRAnalytics.Metrics.VisualizationSurface CreateVisualizationSurface Missing component System.Exception: Tracked object lacA_site must have a mesh and a mesh renderer.
2020-03-19 10:35:29.0247 ERROR TobiiProVRAnalytics.Common.UnityExceptionLogger DelegateLog 2020-03-19 10:35:29.0247 FATAL TobiiProVRAnalytics.Metrics.VisualizationSurface CreateVisualizationSurface Missing component System.Exception: Tracked object lacA_site must have a mesh and a mesh renderer.
UnityEngine.Debug:LogError(Object)
TobiiProVRAnalytics.TobiiProVRAnalytics.Core.UnityLogTarget:Write(LogEventInfo)
NLog.Targets.Target:Write(AsyncLogEventInfo)
NLog.Targets.Target:WriteAsyncThreadSafe(AsyncLogEventInfo)
NLog.Targets.Target:WriteAsyncLogEvent(AsyncLogEventInfo)
NLog.LoggerImpl:WriteToTargetWithFilterChain(Target, FilterResult, LogEventInfo, AsyncContinuation)
NLog.LoggerImpl:Write(Type, TargetWithFilterChain, LogEventInfo, LogFactory)
NLog.Logger:WriteToTargets(LogLevel, Exception, String, Object[])
NLog.Logger:Fatal(Exception, String)
Tobii.VRAnalytics.Core.Logging.LogFacade:Fatal(Exception, String, String)
TobiiProVRAnalytics.Metrics.VisualizationSurface:CreateVisualizationSurface(TobiiProVRAnalytics_TrackedObject)
TobiiProVRAnalytics.TobiiProVRAnalytics_TrackedObject:qjqHmXhfJg()
TobiiProVRAnalytics.TobiiProVRAnalytics_TrackedObject:Start()
 
2020-03-19 10:35:29.0247 FATAL TobiiProVRAnalytics.Common.UnityExceptionLogger DelegateLog Exception: Tracked object lacA_site must have a mesh and a mesh renderer.
TobiiProVRAnalytics.Metrics.VisualizationSurface.CreateVisualizationSurface (TobiiProVRAnalytics.TobiiProVRAnalytics_TrackedObject trackedObject) (at <df756da527ff44d696a3ea605bc22357>:0)
TobiiProVRAnalytics.TobiiProVRAnalytics_TrackedObject.qjqHmXhfJg () (at <df756da527ff44d696a3ea605bc22357>:0)
TobiiProVRAnalytics.TobiiProVRAnalytics_TrackedObject.Start () (at <df756da527ff44d696a3ea605bc22357>:0)
 
2020-03-19 10:35:29.0397 FATAL TobiiProVRAnalytics.Metrics.VisualizationSurface CreateVisualizationSurface Missing component System.Exception: Tracked object lacOperator_site must have a mesh and a mesh renderer.
2020-03-19 10:35:29.0397 ERROR TobiiProVRAnalytics.Common.UnityExceptionLogger DelegateLog 2020-03-19 10:35:29.0397 FATAL TobiiProVRAnalytics.Metrics.VisualizationSurface CreateVisualizationSurface Missing component System.Exception: Tracked object lacOperator_site must have a mesh and a mesh renderer.
UnityEngine.Debug:LogError(Object)
TobiiProVRAnalytics.TobiiProVRAnalytics.Core.UnityLogTarget:Write(LogEventInfo)
NLog.Targets.Target:Write(AsyncLogEventInfo)
NLog.Targets.Target:WriteAsyncThreadSafe(AsyncLogEventInfo)
NLog.Targets.Target:WriteAsyncLogEvent(AsyncLogEventInfo)
NLog.LoggerImpl:WriteToTargetWithFilterChain(Target, FilterResult, LogEventInfo, AsyncContinuation)
NLog.LoggerImpl:Write(Type, TargetWithFilterChain, LogEventInfo, LogFactory)
NLog.Logger:WriteToTargets(LogLevel, Exception, String, Object[])
NLog.Logger:Fatal(Exception, String)
Tobii.VRAnalytics.Core.Logging.LogFacade:Fatal(Exception, String, String)
TobiiProVRAnalytics.Metrics.VisualizationSurface:CreateVisualizationSurface(TobiiProVRAnalytics_TrackedObject)
TobiiProVRAnalytics.TobiiProVRAnalytics_TrackedObject:qjqHmXhfJg()
TobiiProVRAnalytics.TobiiProVRAnalytics_TrackedObject:Start()
 
2020-03-19 10:35:29.0397 FATAL TobiiProVRAnalytics.Common.UnityExceptionLogger DelegateLog Exception: Tracked object lacOperator_site must have a mesh and a mesh renderer.
TobiiProVRAnalytics.Metrics.VisualizationSurface.CreateVisualizationSurface (TobiiProVRAnalytics.TobiiProVRAnalytics_TrackedObject trackedObject) (at <df756da527ff44d696a3ea605bc22357>:0)
TobiiProVRAnalytics.TobiiProVRAnalytics_TrackedObject.qjqHmXhfJg () (at <df756da527ff44d696a3ea605bc22357>:0)
TobiiProVRAnalytics.TobiiProVRAnalytics_TrackedObject.Start () (at <df756da527ff44d696a3ea605bc22357>:0)
 
2020-03-19 10:35:29.0397 FATAL TobiiProVRAnalytics.Metrics.VisualizationSurface CreateVisualizationSurface Missing component System.Exception: Tracked object lacI_site must have a mesh and a mesh renderer.
2020-03-19 10:35:29.0397 ERROR TobiiProVRAnalytics.Common.UnityExceptionLogger DelegateLog 2020-03-19 10:35:29.0397 FATAL TobiiProVRAnalytics.Metrics.VisualizationSurface CreateVisualizationSurface Missing component System.Exception: Tracked object lacI_site must have a mesh and a mesh renderer.
UnityEngine.Debug:LogError(Object)
TobiiProVRAnalytics.TobiiProVRAnalytics.Core.UnityLogTarget:Write(LogEventInfo)
NLog.Targets.Target:Write(AsyncLogEventInfo)
NLog.Targets.Target:WriteAsyncThreadSafe(AsyncLogEventInfo)
NLog.Targets.Target:WriteAsyncLogEvent(AsyncLogEventInfo)
NLog.LoggerImpl:WriteToTargetWithFilterChain(Target, FilterResult, LogEventInfo, AsyncContinuation)
NLog.LoggerImpl:Write(Type, TargetWithFilterChain, LogEventInfo, LogFactory)
NLog.Logger:WriteToTargets(LogLevel, Exception, String, Object[])
NLog.Logger:Fatal(Exception, String)
Tobii.VRAnalytics.Core.Logging.LogFacade:Fatal(Exception, String, String)
TobiiProVRAnalytics.Metrics.VisualizationSurface:CreateVisualizationSurface(TobiiProVRAnalytics_TrackedObject)
TobiiProVRAnalytics.TobiiProVRAnalytics_TrackedObject:qjqHmXhfJg()
TobiiProVRAnalytics.TobiiProVRAnalytics_TrackedObject:Start()
 
2020-03-19 10:35:29.0526 FATAL TobiiProVRAnalytics.Common.UnityExceptionLogger DelegateLog Exception: Tracked object lacI_site must have a mesh and a mesh renderer.
TobiiProVRAnalytics.Metrics.VisualizationSurface.CreateVisualizationSurface (TobiiProVRAnalytics.TobiiProVRAnalytics_TrackedObject trackedObject) (at <df756da527ff44d696a3ea605bc22357>:0)
TobiiProVRAnalytics.TobiiProVRAnalytics_TrackedObject.qjqHmXhfJg () (at <df756da527ff44d696a3ea605bc22357>:0)
TobiiProVRAnalytics.TobiiProVRAnalytics_TrackedObject.Start () (at <df756da527ff44d696a3ea605bc22357>:0)
 
2020-03-19 10:35:29.0526 FATAL TobiiProVRAnalytics.Metrics.VisualizationSurface CreateVisualizationSurface Missing component System.Exception: Tracked object lacIPromoter_site must have a mesh and a mesh renderer.
2020-03-19 10:35:29.0526 ERROR TobiiProVRAnalytics.Common.UnityExceptionLogger DelegateLog 2020-03-19 10:35:29.0526 FATAL TobiiProVRAnalytics.Metrics.VisualizationSurface CreateVisualizationSurface Missing component System.Exception: Tracked object lacIPromoter_site must have a mesh and a mesh renderer.
UnityEngine.Debug:LogError(Object)
TobiiProVRAnalytics.TobiiProVRAnalytics.Core.UnityLogTarget:Write(LogEventInfo)
NLog.Targets.Target:Write(AsyncLogEventInfo)
NLog.Targets.Target:WriteAsyncThreadSafe(AsyncLogEventInfo)
NLog.Targets.Target:WriteAsyncLogEvent(AsyncLogEventInfo)
NLog.LoggerImpl:WriteToTargetWithFilterChain(Target, FilterResult, LogEventInfo, AsyncContinuation)
NLog.LoggerImpl:Write(Type, TargetWithFilterChain, LogEventInfo, LogFactory)
NLog.Logger:WriteToTargets(LogLevel, Exception, String, Object[])
NLog.Logger:Fatal(Exception, String)
Tobii.VRAnalytics.Core.Logging.LogFacade:Fatal(Exception, String, String)
TobiiProVRAnalytics.Metrics.VisualizationSurface:CreateVisualizationSurface(TobiiProVRAnalytics_TrackedObject)
TobiiProVRAnalytics.TobiiProVRAnalytics_TrackedObject:qjqHmXhfJg()
TobiiProVRAnalytics.TobiiProVRAnalytics_TrackedObject:Start()
 
2020-03-19 10:35:29.0526 FATAL TobiiProVRAnalytics.Common.UnityExceptionLogger DelegateLog Exception: Tracked object lacIPromoter_site must have a mesh and a mesh renderer.
TobiiProVRAnalytics.Metrics.VisualizationSurface.CreateVisualizationSurface (TobiiProVRAnalytics.TobiiProVRAnalytics_TrackedObject trackedObject) (at <df756da527ff44d696a3ea605bc22357>:0)
TobiiProVRAnalytics.TobiiProVRAnalytics_TrackedObject.qjqHmXhfJg () (at <df756da527ff44d696a3ea605bc22357>:0)
TobiiProVRAnalytics.TobiiProVRAnalytics_TrackedObject.Start () (at <df756da527ff44d696a3ea605bc22357>:0)
 
2020-03-19 10:35:29.0526 FATAL TobiiProVRAnalytics.Metrics.VisualizationSurface CreateVisualizationSurface Missing component System.Exception: Tracked object lacPromoter_site must have a mesh and a mesh renderer.
2020-03-19 10:35:29.0526 ERROR TobiiProVRAnalytics.Common.UnityExceptionLogger DelegateLog 2020-03-19 10:35:29.0526 FATAL TobiiProVRAnalytics.Metrics.VisualizationSurface CreateVisualizationSurface Missing component System.Exception: Tracked object lacPromoter_site must have a mesh and a mesh renderer.
UnityEngine.Debug:LogError(Object)
TobiiProVRAnalytics.TobiiProVRAnalytics.Core.UnityLogTarget:Write(LogEventInfo)
NLog.Targets.Target:Write(AsyncLogEventInfo)
NLog.Targets.Target:WriteAsyncThreadSafe(AsyncLogEventInfo)
NLog.Targets.Target:WriteAsyncLogEvent(AsyncLogEventInfo)
NLog.LoggerImpl:WriteToTargetWithFilterChain(Target, FilterResult, LogEventInfo, AsyncContinuation)
NLog.LoggerImpl:Write(Type, TargetWithFilterChain, LogEventInfo, LogFactory)
NLog.Logger:WriteToTargets(LogLevel, Exception, String, Object[])
NLog.Logger:Fatal(Exception, String)
Tobii.VRAnalytics.Core.Logging.LogFacade:Fatal(Exception, String, String)
TobiiProVRAnalytics.Metrics.VisualizationSurface:CreateVisualizationSurface(TobiiProVRAnalytics_TrackedObject)
TobiiProVRAnalytics.TobiiProVRAnalytics_TrackedObject:qjqHmXhfJg()
TobiiProVRAnalytics.TobiiProVRAnalytics_TrackedObject:Start()
 
2020-03-19 10:35:29.0526 FATAL TobiiProVRAnalytics.Common.UnityExceptionLogger DelegateLog Exception: Tracked object lacPromoter_site must have a mesh and a mesh renderer.
TobiiProVRAnalytics.Metrics.VisualizationSurface.CreateVisualizationSurface (TobiiProVRAnalytics.TobiiProVRAnalytics_TrackedObject trackedObject) (at <df756da527ff44d696a3ea605bc22357>:0)
TobiiProVRAnalytics.TobiiProVRAnalytics_TrackedObject.qjqHmXhfJg () (at <df756da527ff44d696a3ea605bc22357>:0)
TobiiProVRAnalytics.TobiiProVRAnalytics_TrackedObject.Start () (at <df756da527ff44d696a3ea605bc22357>:0)
 
2020-03-19 10:35:29.0686 FATAL TobiiProVRAnalytics.Metrics.VisualizationSurface CreateVisualizationSurface Missing component System.Exception: Tracked object capSite_site must have a mesh and a mesh renderer.
2020-03-19 10:35:29.0686 ERROR TobiiProVRAnalytics.Common.UnityExceptionLogger DelegateLog 2020-03-19 10:35:29.0686 FATAL TobiiProVRAnalytics.Metrics.VisualizationSurface CreateVisualizationSurface Missing component System.Exception: Tracked object capSite_site must have a mesh and a mesh renderer.
UnityEngine.Debug:LogError(Object)
TobiiProVRAnalytics.TobiiProVRAnalytics.Core.UnityLogTarget:Write(LogEventInfo)
NLog.Targets.Target:Write(AsyncLogEventInfo)
NLog.Targets.Target:WriteAsyncThreadSafe(AsyncLogEventInfo)
NLog.Targets.Target:WriteAsyncLogEvent(AsyncLogEventInfo)
NLog.LoggerImpl:WriteToTargetWithFilterChain(Target, FilterResult, LogEventInfo, AsyncContinuation)
NLog.LoggerImpl:Write(Type, TargetWithFilterChain, LogEventInfo, LogFactory)
NLog.Logger:WriteToTargets(LogLevel, Exception, String, Object[])
NLog.Logger:Fatal(Exception, String)
Tobii.VRAnalytics.Core.Logging.LogFacade:Fatal(Exception, String, String)
TobiiProVRAnalytics.Metrics.VisualizationSurface:CreateVisualizationSurface(TobiiProVRAnalytics_TrackedObject)
TobiiProVRAnalytics.TobiiProVRAnalytics_TrackedObject:qjqHmXhfJg()
TobiiProVRAnalytics.TobiiProVRAnalytics_TrackedObject:Start()
 
2020-03-19 10:35:29.0686 FATAL TobiiProVRAnalytics.Common.UnityExceptionLogger DelegateLog Exception: Tracked object capSite_site must have a mesh and a mesh renderer.
TobiiProVRAnalytics.Metrics.VisualizationSurface.CreateVisualizationSurface (TobiiProVRAnalytics.TobiiProVRAnalytics_TrackedObject trackedObject) (at <df756da527ff44d696a3ea605bc22357>:0)
TobiiProVRAnalytics.TobiiProVRAnalytics_TrackedObject.qjqHmXhfJg () (at <df756da527ff44d696a3ea605bc22357>:0)
TobiiProVRAnalytics.TobiiProVRAnalytics_TrackedObject.Start () (at <df756da527ff44d696a3ea605bc22357>:0)
 
2020-03-19 10:35:29.0686 FATAL TobiiProVRAnalytics.Metrics.VisualizationSurface CreateVisualizationSurface Missing component System.Exception: Tracked object lacZ_site must have a mesh and a mesh renderer.
2020-03-19 10:35:29.0686 ERROR TobiiProVRAnalytics.Common.UnityExceptionLogger DelegateLog 2020-03-19 10:35:29.0686 FATAL TobiiProVRAnalytics.Metrics.VisualizationSurface CreateVisualizationSurface Missing component System.Exception: Tracked object lacZ_site must have a mesh and a mesh renderer.
UnityEngine.Debug:LogError(Object)
TobiiProVRAnalytics.TobiiProVRAnalytics.Core.UnityLogTarget:Write(LogEventInfo)
NLog.Targets.Target:Write(AsyncLogEventInfo)
NLog.Targets.Target:WriteAsyncThreadSafe(AsyncLogEventInfo)
NLog.Targets.Target:WriteAsyncLogEvent(AsyncLogEventInfo)
NLog.LoggerImpl:WriteToTargetWithFilterChain(Target, FilterResult, LogEventInfo, AsyncContinuation)
NLog.LoggerImpl:Write(Type, TargetWithFilterChain, LogEventInfo, LogFactory)
NLog.Logger:WriteToTargets(LogLevel, Exception, String, Object[])
NLog.Logger:Fatal(Exception, String)
Tobii.VRAnalytics.Core.Logging.LogFacade:Fatal(Exception, String, String)
TobiiProVRAnalytics.Metrics.VisualizationSurface:CreateVisualizationSurface(TobiiProVRAnalytics_TrackedObject)
TobiiProVRAnalytics.TobiiProVRAnalytics_TrackedObject:qjqHmXhfJg()
TobiiProVRAnalytics.TobiiProVRAnalytics_TrackedObject:Start()
 
2020-03-19 10:35:29.0686 FATAL TobiiProVRAnalytics.Common.UnityExceptionLogger DelegateLog Exception: Tracked object lacZ_site must have a mesh and a mesh renderer.
TobiiProVRAnalytics.Metrics.VisualizationSurface.CreateVisualizationSurface (TobiiProVRAnalytics.TobiiProVRAnalytics_TrackedObject trackedObject) (at <df756da527ff44d696a3ea605bc22357>:0)
TobiiProVRAnalytics.TobiiProVRAnalytics_TrackedObject.qjqHmXhfJg () (at <df756da527ff44d696a3ea605bc22357>:0)
TobiiProVRAnalytics.TobiiProVRAnalytics_TrackedObject.Start () (at <df756da527ff44d696a3ea605bc22357>:0)
 
2020-03-19 10:35:41.2205 FATAL TobiiProVRAnalytics.Metrics.VisualizationSurface CreateVisualizationSurface Missing component System.Exception: Tracked object lacY_site must have a mesh and a mesh renderer.
2020-03-19 10:35:41.2205 ERROR TobiiProVRAnalytics.Common.UnityExceptionLogger DelegateLog 2020-03-19 10:35:41.2205 FATAL TobiiProVRAnalytics.Metrics.VisualizationSurface CreateVisualizationSurface Missing component System.Exception: Tracked object lacY_site must have a mesh and a mesh renderer.
UnityEngine.Debug:LogError(Object)
TobiiProVRAnalytics.TobiiProVRAnalytics.Core.UnityLogTarget:Write(LogEventInfo)
NLog.Targets.Target:Write(AsyncLogEventInfo)
NLog.Targets.Target:WriteAsyncThreadSafe(AsyncLogEventInfo)
NLog.Targets.Target:WriteAsyncLogEvent(AsyncLogEventInfo)
NLog.LoggerImpl:WriteToTargetWithFilterChain(Target, FilterResult, LogEventInfo, AsyncContinuation)
NLog.LoggerImpl:Write(Type, TargetWithFilterChain, LogEventInfo, LogFactory)
NLog.Logger:WriteToTargets(LogLevel, Exception, String, Object[])
NLog.Logger:Fatal(Exception, String)
Tobii.VRAnalytics.Core.Logging.LogFacade:Fatal(Exception, String, String)
TobiiProVRAnalytics.Metrics.VisualizationSurface:CreateVisualizationSurface(TobiiProVRAnalytics_TrackedObject)
TobiiProVRAnalytics.TobiiProVRAnalytics_TrackedObject:qjqHmXhfJg()
TobiiProVRAnalytics.TobiiProVRAnalytics_TrackedObject:Start()
 
2020-03-19 10:35:41.2255 ERROR TobiiProVRAnalytics.Common.UnityExceptionLogger DelegateLog 2020-03-19 10:35:41.2205 FATAL TobiiProVRAnalytics.Metrics.VisualizationSurface CreateVisualizationSurface Missing component System.Exception: Tracked object lacY_site must have a mesh and a mesh renderer.
UnityEngine.Debug:LogError(Object)
TobiiProVRAnalytics.TobiiProVRAnalytics.Core.UnityLogTarget:Write(LogEventInfo)
NLog.Targets.Target:Write(AsyncLogEventInfo)
NLog.Targets.Target:WriteAsyncThreadSafe(AsyncLogEventInfo)
NLog.Targets.Target:WriteAsyncLogEvent(AsyncLogEventInfo)
NLog.LoggerImpl:WriteToTargetWithFilterChain(Target, FilterResult, LogEventInfo, AsyncContinuation)
NLog.LoggerImpl:Write(Type, TargetWithFilterChain, LogEventInfo, LogFactory)
NLog.Logger:WriteToTargets(LogLevel, Exception, String, Object[])
NLog.Logger:Fatal(Exception, String)
Tobii.VRAnalytics.Core.Logging.LogFacade:Fatal(Exception, String, String)
TobiiProVRAnalytics.Metrics.VisualizationSurface:CreateVisualizationSurface(TobiiProVRAnalytics_TrackedObject)
TobiiProVRAnalytics.TobiiProVRAnalytics_TrackedObject:qjqHmXhfJg()
TobiiProVRAnalytics.TobiiProVRAnalytics_TrackedObject:Start()
 
2020-03-19 10:35:41.2255 FATAL TobiiProVRAnalytics.Common.UnityExceptionLogger DelegateLog Exception: Tracked object lacY_site must have a mesh and a mesh renderer.
TobiiProVRAnalytics.Metrics.VisualizationSurface.CreateVisualizationSurface (TobiiProVRAnalytics.TobiiProVRAnalytics_TrackedObject trackedObject) (at <df756da527ff44d696a3ea605bc22357>:0)
TobiiProVRAnalytics.TobiiProVRAnalytics_TrackedObject.qjqHmXhfJg () (at <df756da527ff44d696a3ea605bc22357>:0)
TobiiProVRAnalytics.TobiiProVRAnalytics_TrackedObject.Start () (at <df756da527ff44d696a3ea605bc22357>:0)
 
2020-03-19 10:35:41.2255 FATAL TobiiProVRAnalytics.Common.UnityExceptionLogger DelegateLog Exception: Tracked object lacY_site must have a mesh and a mesh renderer.
TobiiProVRAnalytics.Metrics.VisualizationSurface.CreateVisualizationSurface (TobiiProVRAnalytics.TobiiProVRAnalytics_TrackedObject trackedObject) (at <df756da527ff44d696a3ea605bc22357>:0)
TobiiProVRAnalytics.TobiiProVRAnalytics_TrackedObject.qjqHmXhfJg () (at <df756da527ff44d696a3ea605bc22357>:0)
TobiiProVRAnalytics.TobiiProVRAnalytics_TrackedObject.Start () (at <df756da527ff44d696a3ea605bc22357>:0)
 
2020-03-19 10:35:41.2255 FATAL TobiiProVRAnalytics.Metrics.VisualizationSurface CreateVisualizationSurface Missing component System.Exception: Tracked object lacA_site must have a mesh and a mesh renderer.
2020-03-19 10:35:41.2255 ERROR TobiiProVRAnalytics.Common.UnityExceptionLogger DelegateLog 2020-03-19 10:35:41.2255 FATAL TobiiProVRAnalytics.Metrics.VisualizationSurface CreateVisualizationSurface Missing component System.Exception: Tracked object lacA_site must have a mesh and a mesh renderer.
UnityEngine.Debug:LogError(Object)
TobiiProVRAnalytics.TobiiProVRAnalytics.Core.UnityLogTarget:Write(LogEventInfo)
NLog.Targets.Target:Write(AsyncLogEventInfo)
NLog.Targets.Target:WriteAsyncThreadSafe(AsyncLogEventInfo)
NLog.Targets.Target:WriteAsyncLogEvent(AsyncLogEventInfo)
NLog.LoggerImpl:WriteToTargetWithFilterChain(Target, FilterResult, LogEventInfo, AsyncContinuation)
NLog.LoggerImpl:Write(Type, TargetWithFilterChain, LogEventInfo, LogFactory)
NLog.Logger:WriteToTargets(LogLevel, Exception, String, Object[])
NLog.Logger:Fatal(Exception, String)
Tobii.VRAnalytics.Core.Logging.LogFacade:Fatal(Exception, String, String)
TobiiProVRAnalytics.Metrics.VisualizationSurface:CreateVisualizationSurface(TobiiProVRAnalytics_TrackedObject)
TobiiProVRAnalytics.TobiiProVRAnalytics_TrackedObject:qjqHmXhfJg()
TobiiProVRAnalytics.TobiiProVRAnalytics_TrackedObject:Start()
 
2020-03-19 10:35:41.2255 ERROR TobiiProVRAnalytics.Common.UnityExceptionLogger DelegateLog 2020-03-19 10:35:41.2255 FATAL TobiiProVRAnalytics.Metrics.VisualizationSurface CreateVisualizationSurface Missing component System.Exception: Tracked object lacA_site must have a mesh and a mesh renderer.
UnityEngine.Debug:LogError(Object)
TobiiProVRAnalytics.TobiiProVRAnalytics.Core.UnityLogTarget:Write(LogEventInfo)
NLog.Targets.Target:Write(AsyncLogEventInfo)
NLog.Targets.Target:WriteAsyncThreadSafe(AsyncLogEventInfo)
NLog.Targets.Target:WriteAsyncLogEvent(AsyncLogEventInfo)
NLog.LoggerImpl:WriteToTargetWithFilterChain(Target, FilterResult, LogEventInfo, AsyncContinuation)
NLog.LoggerImpl:Write(Type, TargetWithFilterChain, LogEventInfo, LogFactory)
NLog.Logger:WriteToTargets(LogLevel, Exception, String, Object[])
NLog.Logger:Fatal(Exception, String)
Tobii.VRAnalytics.Core.Logging.LogFacade:Fatal(Exception, String, String)
TobiiProVRAnalytics.Metrics.VisualizationSurface:CreateVisualizationSurface(TobiiProVRAnalytics_TrackedObject)
TobiiProVRAnalytics.TobiiProVRAnalytics_TrackedObject:qjqHmXhfJg()
TobiiProVRAnalytics.TobiiProVRAnalytics_TrackedObject:Start()
 
2020-03-19 10:35:41.2255 FATAL TobiiProVRAnalytics.Common.UnityExceptionLogger DelegateLog Exception: Tracked object lacA_site must have a mesh and a mesh renderer.
TobiiProVRAnalytics.Metrics.VisualizationSurface.CreateVisualizationSurface (TobiiProVRAnalytics.TobiiProVRAnalytics_TrackedObject trackedObject) (at <df756da527ff44d696a3ea605bc22357>:0)
TobiiProVRAnalytics.TobiiProVRAnalytics_TrackedObject.qjqHmXhfJg () (at <df756da527ff44d696a3ea605bc22357>:0)
TobiiProVRAnalytics.TobiiProVRAnalytics_TrackedObject.Start () (at <df756da527ff44d696a3ea605bc22357>:0)
 
2020-03-19 10:35:41.2255 FATAL TobiiProVRAnalytics.Common.UnityExceptionLogger DelegateLog Exception: Tracked object lacA_site must have a mesh and a mesh renderer.
TobiiProVRAnalytics.Metrics.VisualizationSurface.CreateVisualizationSurface (TobiiProVRAnalytics.TobiiProVRAnalytics_TrackedObject trackedObject) (at <df756da527ff44d696a3ea605bc22357>:0)
TobiiProVRAnalytics.TobiiProVRAnalytics_TrackedObject.qjqHmXhfJg () (at <df756da527ff44d696a3ea605bc22357>:0)
TobiiProVRAnalytics.TobiiProVRAnalytics_TrackedObject.Start () (at <df756da527ff44d696a3ea605bc22357>:0)
 
2020-03-19 10:35:41.2414 FATAL TobiiProVRAnalytics.Metrics.VisualizationSurface CreateVisualizationSurface Missing component System.Exception: Tracked object lacOperator_site must have a mesh and a mesh renderer.
2020-03-19 10:35:41.2414 ERROR TobiiProVRAnalytics.Common.UnityExceptionLogger DelegateLog 2020-03-19 10:35:41.2414 FATAL TobiiProVRAnalytics.Metrics.VisualizationSurface CreateVisualizationSurface Missing component System.Exception: Tracked object lacOperator_site must have a mesh and a mesh renderer.
UnityEngine.Debug:LogError(Object)
TobiiProVRAnalytics.TobiiProVRAnalytics.Core.UnityLogTarget:Write(LogEventInfo)
NLog.Targets.Target:Write(AsyncLogEventInfo)
NLog.Targets.Target:WriteAsyncThreadSafe(AsyncLogEventInfo)
NLog.Targets.Target:WriteAsyncLogEvent(AsyncLogEventInfo)
NLog.LoggerImpl:WriteToTargetWithFilterChain(Target, FilterResult, LogEventInfo, AsyncContinuation)
NLog.LoggerImpl:Write(Type, TargetWithFilterChain, LogEventInfo, LogFactory)
NLog.Logger:WriteToTargets(LogLevel, Exception, String, Object[])
NLog.Logger:Fatal(Exception, String)
Tobii.VRAnalytics.Core.Logging.LogFacade:Fatal(Exception, String, String)
TobiiProVRAnalytics.Metrics.VisualizationSurface:CreateVisualizationSurface(TobiiProVRAnalytics_TrackedObject)
TobiiProVRAnalytics.TobiiProVRAnalytics_TrackedObject:qjqHmXhfJg()
TobiiProVRAnalytics.TobiiProVRAnalytics_TrackedObject:Start()
 
2020-03-19 10:35:41.2414 ERROR TobiiProVRAnalytics.Common.UnityExceptionLogger DelegateLog 2020-03-19 10:35:41.2414 FATAL TobiiProVRAnalytics.Metrics.VisualizationSurface CreateVisualizationSurface Missing component System.Exception: Tracked object lacOperator_site must have a mesh and a mesh renderer.
UnityEngine.Debug:LogError(Object)
TobiiProVRAnalytics.TobiiProVRAnalytics.Core.UnityLogTarget:Write(LogEventInfo)
NLog.Targets.Target:Write(AsyncLogEventInfo)
NLog.Targets.Target:WriteAsyncThreadSafe(AsyncLogEventInfo)
NLog.Targets.Target:WriteAsyncLogEvent(AsyncLogEventInfo)
NLog.LoggerImpl:WriteToTargetWithFilterChain(Target, FilterResult, LogEventInfo, AsyncContinuation)
NLog.LoggerImpl:Write(Type, TargetWithFilterChain, LogEventInfo, LogFactory)
NLog.Logger:WriteToTargets(LogLevel, Exception, String, Object[])
NLog.Logger:Fatal(Exception, String)
Tobii.VRAnalytics.Core.Logging.LogFacade:Fatal(Exception, String, String)
TobiiProVRAnalytics.Metrics.VisualizationSurface:CreateVisualizationSurface(TobiiProVRAnalytics_TrackedObject)
TobiiProVRAnalytics.TobiiProVRAnalytics_TrackedObject:qjqHmXhfJg()
TobiiProVRAnalytics.TobiiProVRAnalytics_TrackedObject:Start()
 
2020-03-19 10:35:41.2414 FATAL TobiiProVRAnalytics.Common.UnityExceptionLogger DelegateLog Exception: Tracked object lacOperator_site must have a mesh and a mesh renderer.
TobiiProVRAnalytics.Metrics.VisualizationSurface.CreateVisualizationSurface (TobiiProVRAnalytics.TobiiProVRAnalytics_TrackedObject trackedObject) (at <df756da527ff44d696a3ea605bc22357>:0)
TobiiProVRAnalytics.TobiiProVRAnalytics_TrackedObject.qjqHmXhfJg () (at <df756da527ff44d696a3ea605bc22357>:0)
TobiiProVRAnalytics.TobiiProVRAnalytics_TrackedObject.Start () (at <df756da527ff44d696a3ea605bc22357>:0)
 
2020-03-19 10:35:41.2414 FATAL TobiiProVRAnalytics.Common.UnityExceptionLogger DelegateLog Exception: Tracked object lacOperator_site must have a mesh and a mesh renderer.
TobiiProVRAnalytics.Metrics.VisualizationSurface.CreateVisualizationSurface (TobiiProVRAnalytics.TobiiProVRAnalytics_TrackedObject trackedObject) (at <df756da527ff44d696a3ea605bc22357>:0)
TobiiProVRAnalytics.TobiiProVRAnalytics_TrackedObject.qjqHmXhfJg () (at <df756da527ff44d696a3ea605bc22357>:0)
TobiiProVRAnalytics.TobiiProVRAnalytics_TrackedObject.Start () (at <df756da527ff44d696a3ea605bc22357>:0)
 
2020-03-19 10:35:41.2414 FATAL TobiiProVRAnalytics.Metrics.VisualizationSurface CreateVisualizationSurface Missing component System.Exception: Tracked object lacI_site must have a mesh and a mesh renderer.
2020-03-19 10:35:41.2565 ERROR TobiiProVRAnalytics.Common.UnityExceptionLogger DelegateLog 2020-03-19 10:35:41.2414 FATAL TobiiProVRAnalytics.Metrics.VisualizationSurface CreateVisualizationSurface Missing component System.Exception: Tracked object lacI_site must have a mesh and a mesh renderer.
UnityEngine.Debug:LogError(Object)
TobiiProVRAnalytics.TobiiProVRAnalytics.Core.UnityLogTarget:Write(LogEventInfo)
NLog.Targets.Target:Write(AsyncLogEventInfo)
NLog.Targets.Target:WriteAsyncThreadSafe(AsyncLogEventInfo)
NLog.Targets.Target:WriteAsyncLogEvent(AsyncLogEventInfo)
NLog.LoggerImpl:WriteToTargetWithFilterChain(Target, FilterResult, LogEventInfo, AsyncContinuation)
NLog.LoggerImpl:Write(Type, TargetWithFilterChain, LogEventInfo, LogFactory)
NLog.Logger:WriteToTargets(LogLevel, Exception, String, Object[])
NLog.Logger:Fatal(Exception, String)
Tobii.VRAnalytics.Core.Logging.LogFacade:Fatal(Exception, String, String)
TobiiProVRAnalytics.Metrics.VisualizationSurface:CreateVisualizationSurface(TobiiProVRAnalytics_TrackedObject)
TobiiProVRAnalytics.TobiiProVRAnalytics_TrackedObject:qjqHmXhfJg()
TobiiProVRAnalytics.TobiiProVRAnalytics_TrackedObject:Start()
 
2020-03-19 10:35:41.2565 ERROR TobiiProVRAnalytics.Common.UnityExceptionLogger DelegateLog 2020-03-19 10:35:41.2414 FATAL TobiiProVRAnalytics.Metrics.VisualizationSurface CreateVisualizationSurface Missing component System.Exception: Tracked object lacI_site must have a mesh and a mesh renderer.
UnityEngine.Debug:LogError(Object)
TobiiProVRAnalytics.TobiiProVRAnalytics.Core.UnityLogTarget:Write(LogEventInfo)
NLog.Targets.Target:Write(AsyncLogEventInfo)
NLog.Targets.Target:WriteAsyncThreadSafe(AsyncLogEventInfo)
NLog.Targets.Target:WriteAsyncLogEvent(AsyncLogEventInfo)
NLog.LoggerImpl:WriteToTargetWithFilterChain(Target, FilterResult, LogEventInfo, AsyncContinuation)
NLog.LoggerImpl:Write(Type, TargetWithFilterChain, LogEventInfo, LogFactory)
NLog.Logger:WriteToTargets(LogLevel, Exception, String, Object[])
NLog.Logger:Fatal(Exception, String)
Tobii.VRAnalytics.Core.Logging.LogFacade:Fatal(Exception, String, String)
TobiiProVRAnalytics.Metrics.VisualizationSurface:CreateVisualizationSurface(TobiiProVRAnalytics_TrackedObject)
TobiiProVRAnalytics.TobiiProVRAnalytics_TrackedObject:qjqHmXhfJg()
TobiiProVRAnalytics.TobiiProVRAnalytics_TrackedObject:Start()
 
2020-03-19 10:35:41.2565 FATAL TobiiProVRAnalytics.Common.UnityExceptionLogger DelegateLog Exception: Tracked object lacI_site must have a mesh and a mesh renderer.
TobiiProVRAnalytics.Metrics.VisualizationSurface.CreateVisualizationSurface (TobiiProVRAnalytics.TobiiProVRAnalytics_TrackedObject trackedObject) (at <df756da527ff44d696a3ea605bc22357>:0)
TobiiProVRAnalytics.TobiiProVRAnalytics_TrackedObject.qjqHmXhfJg () (at <df756da527ff44d696a3ea605bc22357>:0)
TobiiProVRAnalytics.TobiiProVRAnalytics_TrackedObject.Start () (at <df756da527ff44d696a3ea605bc22357>:0)
 
2020-03-19 10:35:41.2565 FATAL TobiiProVRAnalytics.Common.UnityExceptionLogger DelegateLog Exception: Tracked object lacI_site must have a mesh and a mesh renderer.
TobiiProVRAnalytics.Metrics.VisualizationSurface.CreateVisualizationSurface (TobiiProVRAnalytics.TobiiProVRAnalytics_TrackedObject trackedObject) (at <df756da527ff44d696a3ea605bc22357>:0)
TobiiProVRAnalytics.TobiiProVRAnalytics_TrackedObject.qjqHmXhfJg () (at <df756da527ff44d696a3ea605bc22357>:0)
TobiiProVRAnalytics.TobiiProVRAnalytics_TrackedObject.Start () (at <df756da527ff44d696a3ea605bc22357>:0)
 
2020-03-19 10:35:41.2565 FATAL TobiiProVRAnalytics.Metrics.VisualizationSurface CreateVisualizationSurface Missing component System.Exception: Tracked object lacIPromoter_site must have a mesh and a mesh renderer.
2020-03-19 10:35:41.2565 ERROR TobiiProVRAnalytics.Common.UnityExceptionLogger DelegateLog 2020-03-19 10:35:41.2565 FATAL TobiiProVRAnalytics.Metrics.VisualizationSurface CreateVisualizationSurface Missing component System.Exception: Tracked object lacIPromoter_site must have a mesh and a mesh renderer.
UnityEngine.Debug:LogError(Object)
TobiiProVRAnalytics.TobiiProVRAnalytics.Core.UnityLogTarget:Write(LogEventInfo)
NLog.Targets.Target:Write(AsyncLogEventInfo)
NLog.Targets.Target:WriteAsyncThreadSafe(AsyncLogEventInfo)
NLog.Targets.Target:WriteAsyncLogEvent(AsyncLogEventInfo)
NLog.LoggerImpl:WriteToTargetWithFilterChain(Target, FilterResult, LogEventInfo, AsyncContinuation)
NLog.LoggerImpl:Write(Type, TargetWithFilterChain, LogEventInfo, LogFactory)
NLog.Logger:WriteToTargets(LogLevel, Exception, String, Object[])
NLog.Logger:Fatal(Exception, String)
Tobii.VRAnalytics.Core.Logging.LogFacade:Fatal(Exception, String, String)
TobiiProVRAnalytics.Metrics.VisualizationSurface:CreateVisualizationSurface(TobiiProVRAnalytics_TrackedObject)
TobiiProVRAnalytics.TobiiProVRAnalytics_TrackedObject:qjqHmXhfJg()
TobiiProVRAnalytics.TobiiProVRAnalytics_TrackedObject:Start()
 
2020-03-19 10:35:41.2565 ERROR TobiiProVRAnalytics.Common.UnityExceptionLogger DelegateLog 2020-03-19 10:35:41.2565 FATAL TobiiProVRAnalytics.Metrics.VisualizationSurface CreateVisualizationSurface Missing component System.Exception: Tracked object lacIPromoter_site must have a mesh and a mesh renderer.
UnityEngine.Debug:LogError(Object)
TobiiProVRAnalytics.TobiiProVRAnalytics.Core.UnityLogTarget:Write(LogEventInfo)
NLog.Targets.Target:Write(AsyncLogEventInfo)
NLog.Targets.Target:WriteAsyncThreadSafe(AsyncLogEventInfo)
NLog.Targets.Target:WriteAsyncLogEvent(AsyncLogEventInfo)
NLog.LoggerImpl:WriteToTargetWithFilterChain(Target, FilterResult, LogEventInfo, AsyncContinuation)
NLog.LoggerImpl:Write(Type, TargetWithFilterChain, LogEventInfo, LogFactory)
NLog.Logger:WriteToTargets(LogLevel, Exception, String, Object[])
NLog.Logger:Fatal(Exception, String)
Tobii.VRAnalytics.Core.Logging.LogFacade:Fatal(Exception, String, String)
TobiiProVRAnalytics.Metrics.VisualizationSurface:CreateVisualizationSurface(TobiiProVRAnalytics_TrackedObject)
TobiiProVRAnalytics.TobiiProVRAnalytics_TrackedObject:qjqHmXhfJg()
TobiiProVRAnalytics.TobiiProVRAnalytics_TrackedObject:Start()
 
2020-03-19 10:35:41.2565 FATAL TobiiProVRAnalytics.Common.UnityExceptionLogger DelegateLog Exception: Tracked object lacIPromoter_site must have a mesh and a mesh renderer.
TobiiProVRAnalytics.Metrics.VisualizationSurface.CreateVisualizationSurface (TobiiProVRAnalytics.TobiiProVRAnalytics_TrackedObject trackedObject) (at <df756da527ff44d696a3ea605bc22357>:0)
TobiiProVRAnalytics.TobiiProVRAnalytics_TrackedObject.qjqHmXhfJg () (at <df756da527ff44d696a3ea605bc22357>:0)
TobiiProVRAnalytics.TobiiProVRAnalytics_TrackedObject.Start () (at <df756da527ff44d696a3ea605bc22357>:0)
 
2020-03-19 10:35:41.2714 FATAL TobiiProVRAnalytics.Common.UnityExceptionLogger DelegateLog Exception: Tracked object lacIPromoter_site must have a mesh and a mesh renderer.
TobiiProVRAnalytics.Metrics.VisualizationSurface.CreateVisualizationSurface (TobiiProVRAnalytics.TobiiProVRAnalytics_TrackedObject trackedObject) (at <df756da527ff44d696a3ea605bc22357>:0)
TobiiProVRAnalytics.TobiiProVRAnalytics_TrackedObject.qjqHmXhfJg () (at <df756da527ff44d696a3ea605bc22357>:0)
TobiiProVRAnalytics.TobiiProVRAnalytics_TrackedObject.Start () (at <df756da527ff44d696a3ea605bc22357>:0)
 
2020-03-19 10:35:41.2714 FATAL TobiiProVRAnalytics.Metrics.VisualizationSurface CreateVisualizationSurface Missing component System.Exception: Tracked object lacPromoter_site must have a mesh and a mesh renderer.
2020-03-19 10:35:41.2714 ERROR TobiiProVRAnalytics.Common.UnityExceptionLogger DelegateLog 2020-03-19 10:35:41.2714 FATAL TobiiProVRAnalytics.Metrics.VisualizationSurface CreateVisualizationSurface Missing component System.Exception: Tracked object lacPromoter_site must have a mesh and a mesh renderer.
UnityEngine.Debug:LogError(Object)
TobiiProVRAnalytics.TobiiProVRAnalytics.Core.UnityLogTarget:Write(LogEventInfo)
NLog.Targets.Target:Write(AsyncLogEventInfo)
NLog.Targets.Target:WriteAsyncThreadSafe(AsyncLogEventInfo)
NLog.Targets.Target:WriteAsyncLogEvent(AsyncLogEventInfo)
NLog.LoggerImpl:WriteToTargetWithFilterChain(Target, FilterResult, LogEventInfo, AsyncContinuation)
NLog.LoggerImpl:Write(Type, TargetWithFilterChain, LogEventInfo, LogFactory)
NLog.Logger:WriteToTargets(LogLevel, Exception, String, Object[])
NLog.Logger:Fatal(Exception, String)
Tobii.VRAnalytics.Core.Logging.LogFacade:Fatal(Exception, String, String)
TobiiProVRAnalytics.Metrics.VisualizationSurface:CreateVisualizationSurface(TobiiProVRAnalytics_TrackedObject)
TobiiProVRAnalytics.TobiiProVRAnalytics_TrackedObject:qjqHmXhfJg()
TobiiProVRAnalytics.TobiiProVRAnalytics_TrackedObject:Start()
 
2020-03-19 10:35:41.2714 ERROR TobiiProVRAnalytics.Common.UnityExceptionLogger DelegateLog 2020-03-19 10:35:41.2714 FATAL TobiiProVRAnalytics.Metrics.VisualizationSurface CreateVisualizationSurface Missing component System.Exception: Tracked object lacPromoter_site must have a mesh and a mesh renderer.
UnityEngine.Debug:LogError(Object)
TobiiProVRAnalytics.TobiiProVRAnalytics.Core.UnityLogTarget:Write(LogEventInfo)
NLog.Targets.Target:Write(AsyncLogEventInfo)
NLog.Targets.Target:WriteAsyncThreadSafe(AsyncLogEventInfo)
NLog.Targets.Target:WriteAsyncLogEvent(AsyncLogEventInfo)
NLog.LoggerImpl:WriteToTargetWithFilterChain(Target, FilterResult, LogEventInfo, AsyncContinuation)
NLog.LoggerImpl:Write(Type, TargetWithFilterChain, LogEventInfo, LogFactory)
NLog.Logger:WriteToTargets(LogLevel, Exception, String, Object[])
NLog.Logger:Fatal(Exception, String)
Tobii.VRAnalytics.Core.Logging.LogFacade:Fatal(Exception, String, String)
TobiiProVRAnalytics.Metrics.VisualizationSurface:CreateVisualizationSurface(TobiiProVRAnalytics_TrackedObject)
TobiiProVRAnalytics.TobiiProVRAnalytics_TrackedObject:qjqHmXhfJg()
TobiiProVRAnalytics.TobiiProVRAnalytics_TrackedObject:Start()
 
2020-03-19 10:35:41.2714 FATAL TobiiProVRAnalytics.Common.UnityExceptionLogger DelegateLog Exception: Tracked object lacPromoter_site must have a mesh and a mesh renderer.
TobiiProVRAnalytics.Metrics.VisualizationSurface.CreateVisualizationSurface (TobiiProVRAnalytics.TobiiProVRAnalytics_TrackedObject trackedObject) (at <df756da527ff44d696a3ea605bc22357>:0)
TobiiProVRAnalytics.TobiiProVRAnalytics_TrackedObject.qjqHmXhfJg () (at <df756da527ff44d696a3ea605bc22357>:0)
TobiiProVRAnalytics.TobiiProVRAnalytics_TrackedObject.Start () (at <df756da527ff44d696a3ea605bc22357>:0)
 
2020-03-19 10:35:41.2714 FATAL TobiiProVRAnalytics.Common.UnityExceptionLogger DelegateLog Exception: Tracked object lacPromoter_site must have a mesh and a mesh renderer.
TobiiProVRAnalytics.Metrics.VisualizationSurface.CreateVisualizationSurface (TobiiProVRAnalytics.TobiiProVRAnalytics_TrackedObject trackedObject) (at <df756da527ff44d696a3ea605bc22357>:0)
TobiiProVRAnalytics.TobiiProVRAnalytics_TrackedObject.qjqHmXhfJg () (at <df756da527ff44d696a3ea605bc22357>:0)
TobiiProVRAnalytics.TobiiProVRAnalytics_TrackedObject.Start () (at <df756da527ff44d696a3ea605bc22357>:0)
 
2020-03-19 10:35:41.2714 FATAL TobiiProVRAnalytics.Metrics.VisualizationSurface CreateVisualizationSurface Missing component System.Exception: Tracked object capSite_site must have a mesh and a mesh renderer.
2020-03-19 10:35:41.2714 ERROR TobiiProVRAnalytics.Common.UnityExceptionLogger DelegateLog 2020-03-19 10:35:41.2714 FATAL TobiiProVRAnalytics.Metrics.VisualizationSurface CreateVisualizationSurface Missing component System.Exception: Tracked object capSite_site must have a mesh and a mesh renderer.
UnityEngine.Debug:LogError(Object)
TobiiProVRAnalytics.TobiiProVRAnalytics.Core.UnityLogTarget:Write(LogEventInfo)
NLog.Targets.Target:Write(AsyncLogEventInfo)
NLog.Targets.Target:WriteAsyncThreadSafe(AsyncLogEventInfo)
NLog.Targets.Target:WriteAsyncLogEvent(AsyncLogEventInfo)
NLog.LoggerImpl:WriteToTargetWithFilterChain(Target, FilterResult, LogEventInfo, AsyncContinuation)
NLog.LoggerImpl:Write(Type, TargetWithFilterChain, LogEventInfo, LogFactory)
NLog.Logger:WriteToTargets(LogLevel, Exception, String, Object[])
NLog.Logger:Fatal(Exception, String)
Tobii.VRAnalytics.Core.Logging.LogFacade:Fatal(Exception, String, String)
TobiiProVRAnalytics.Metrics.VisualizationSurface:CreateVisualizationSurface(TobiiProVRAnalytics_TrackedObject)
TobiiProVRAnalytics.TobiiProVRAnalytics_TrackedObject:qjqHmXhfJg()
TobiiProVRAnalytics.TobiiProVRAnalytics_TrackedObject:Start()
 
2020-03-19 10:35:41.2874 ERROR TobiiProVRAnalytics.Common.UnityExceptionLogger DelegateLog 2020-03-19 10:35:41.2714 FATAL TobiiProVRAnalytics.Metrics.VisualizationSurface CreateVisualizationSurface Missing component System.Exception: Tracked object capSite_site must have a mesh and a mesh renderer.
UnityEngine.Debug:LogError(Object)
TobiiProVRAnalytics.TobiiProVRAnalytics.Core.UnityLogTarget:Write(LogEventInfo)
NLog.Targets.Target:Write(AsyncLogEventInfo)
NLog.Targets.Target:WriteAsyncThreadSafe(AsyncLogEventInfo)
NLog.Targets.Target:WriteAsyncLogEvent(AsyncLogEventInfo)
NLog.LoggerImpl:WriteToTargetWithFilterChain(Target, FilterResult, LogEventInfo, AsyncContinuation)
NLog.LoggerImpl:Write(Type, TargetWithFilterChain, LogEventInfo, LogFactory)
NLog.Logger:WriteToTargets(LogLevel, Exception, String, Object[])
NLog.Logger:Fatal(Exception, String)
Tobii.VRAnalytics.Core.Logging.LogFacade:Fatal(Exception, String, String)
TobiiProVRAnalytics.Metrics.VisualizationSurface:CreateVisualizationSurface(TobiiProVRAnalytics_TrackedObject)
TobiiProVRAnalytics.TobiiProVRAnalytics_TrackedObject:qjqHmXhfJg()
TobiiProVRAnalytics.TobiiProVRAnalytics_TrackedObject:Start()
 
2020-03-19 10:35:41.2874 FATAL TobiiProVRAnalytics.Common.UnityExceptionLogger DelegateLog Exception: Tracked object capSite_site must have a mesh and a mesh renderer.
TobiiProVRAnalytics.Metrics.VisualizationSurface.CreateVisualizationSurface (TobiiProVRAnalytics.TobiiProVRAnalytics_TrackedObject trackedObject) (at <df756da527ff44d696a3ea605bc22357>:0)
TobiiProVRAnalytics.TobiiProVRAnalytics_TrackedObject.qjqHmXhfJg () (at <df756da527ff44d696a3ea605bc22357>:0)
TobiiProVRAnalytics.TobiiProVRAnalytics_TrackedObject.Start () (at <df756da527ff44d696a3ea605bc22357>:0)
 
2020-03-19 10:35:41.2874 FATAL TobiiProVRAnalytics.Common.UnityExceptionLogger DelegateLog Exception: Tracked object capSite_site must have a mesh and a mesh renderer.
TobiiProVRAnalytics.Metrics.VisualizationSurface.CreateVisualizationSurface (TobiiProVRAnalytics.TobiiProVRAnalytics_TrackedObject trackedObject) (at <df756da527ff44d696a3ea605bc22357>:0)
TobiiProVRAnalytics.TobiiProVRAnalytics_TrackedObject.qjqHmXhfJg () (at <df756da527ff44d696a3ea605bc22357>:0)
TobiiProVRAnalytics.TobiiProVRAnalytics_TrackedObject.Start () (at <df756da527ff44d696a3ea605bc22357>:0)
 
2020-03-19 10:35:41.2874 FATAL TobiiProVRAnalytics.Metrics.VisualizationSurface CreateVisualizationSurface Missing component System.Exception: Tracked object lacZ_site must have a mesh and a mesh renderer.
2020-03-19 10:35:41.2874 ERROR TobiiProVRAnalytics.Common.UnityExceptionLogger DelegateLog 2020-03-19 10:35:41.2874 FATAL TobiiProVRAnalytics.Metrics.VisualizationSurface CreateVisualizationSurface Missing component System.Exception: Tracked object lacZ_site must have a mesh and a mesh renderer.
UnityEngine.Debug:LogError(Object)
TobiiProVRAnalytics.TobiiProVRAnalytics.Core.UnityLogTarget:Write(LogEventInfo)
NLog.Targets.Target:Write(AsyncLogEventInfo)
NLog.Targets.Target:WriteAsyncThreadSafe(AsyncLogEventInfo)
NLog.Targets.Target:WriteAsyncLogEvent(AsyncLogEventInfo)
NLog.LoggerImpl:WriteToTargetWithFilterChain(Target, FilterResult, LogEventInfo, AsyncContinuation)
NLog.LoggerImpl:Write(Type, TargetWithFilterChain, LogEventInfo, LogFactory)
NLog.Logger:WriteToTargets(LogLevel, Exception, String, Object[])
NLog.Logger:Fatal(Exception, String)
Tobii.VRAnalytics.Core.Logging.LogFacade:Fatal(Exception, String, String)
TobiiProVRAnalytics.Metrics.VisualizationSurface:CreateVisualizationSurface(TobiiProVRAnalytics_TrackedObject)
TobiiProVRAnalytics.TobiiProVRAnalytics_TrackedObject:qjqHmXhfJg()
TobiiProVRAnalytics.TobiiProVRAnalytics_TrackedObject:Start()
 
2020-03-19 10:35:41.2874 ERROR TobiiProVRAnalytics.Common.UnityExceptionLogger DelegateLog 2020-03-19 10:35:41.2874 FATAL TobiiProVRAnalytics.Metrics.VisualizationSurface CreateVisualizationSurface Missing component System.Exception: Tracked object lacZ_site must have a mesh and a mesh renderer.
UnityEngine.Debug:LogError(Object)
TobiiProVRAnalytics.TobiiProVRAnalytics.Core.UnityLogTarget:Write(LogEventInfo)
NLog.Targets.Target:Write(AsyncLogEventInfo)
NLog.Targets.Target:WriteAsyncThreadSafe(AsyncLogEventInfo)
NLog.Targets.Target:WriteAsyncLogEvent(AsyncLogEventInfo)
NLog.LoggerImpl:WriteToTargetWithFilterChain(Target, FilterResult, LogEventInfo, AsyncContinuation)
NLog.LoggerImpl:Write(Type, TargetWithFilterChain, LogEventInfo, LogFactory)
NLog.Logger:WriteToTargets(LogLevel, Exception, String, Object[])
NLog.Logger:Fatal(Exception, String)
Tobii.VRAnalytics.Core.Logging.LogFacade:Fatal(Exception, String, String)
TobiiProVRAnalytics.Metrics.VisualizationSurface:CreateVisualizationSurface(TobiiProVRAnalytics_TrackedObject)
TobiiProVRAnalytics.TobiiProVRAnalytics_TrackedObject:qjqHmXhfJg()
TobiiProVRAnalytics.TobiiProVRAnalytics_TrackedObject:Start()
 
2020-03-19 10:35:41.2874 FATAL TobiiProVRAnalytics.Common.UnityExceptionLogger DelegateLog Exception: Tracked object lacZ_site must have a mesh and a mesh renderer.
TobiiProVRAnalytics.Metrics.VisualizationSurface.CreateVisualizationSurface (TobiiProVRAnalytics.TobiiProVRAnalytics_TrackedObject trackedObject) (at <df756da527ff44d696a3ea605bc22357>:0)
TobiiProVRAnalytics.TobiiProVRAnalytics_TrackedObject.qjqHmXhfJg () (at <df756da527ff44d696a3ea605bc22357>:0)
TobiiProVRAnalytics.TobiiProVRAnalytics_TrackedObject.Start () (at <df756da527ff44d696a3ea605bc22357>:0)
 
2020-03-19 10:35:41.3033 FATAL TobiiProVRAnalytics.Common.UnityExceptionLogger DelegateLog Exception: Tracked object lacZ_site must have a mesh and a mesh renderer.
TobiiProVRAnalytics.Metrics.VisualizationSurface.CreateVisualizationSurface (TobiiProVRAnalytics.TobiiProVRAnalytics_TrackedObject trackedObject) (at <df756da527ff44d696a3ea605bc22357>:0)
TobiiProVRAnalytics.TobiiProVRAnalytics_TrackedObject.qjqHmXhfJg () (at <df756da527ff44d696a3ea605bc22357>:0)
TobiiProVRAnalytics.TobiiProVRAnalytics_TrackedObject.Start () (at <df756da527ff44d696a3ea605bc22357>:0)
 
----------------- Session finished on 2020-03-19 10:37:08.7000 -----------------
