# Blender v2.78 (sub 0) OBJ File: ''
# www.blender.org
o Sphere
v 0.980785 -0.038060 -1.859768
v 0.923880 -0.074658 -2.043757
v 0.831470 -0.108386 -2.213322
v 0.707107 -0.137950 -2.361946
v 0.555570 -0.162212 -2.483920
v 0.382683 -0.180240 -2.574554
v 0.195090 -0.191342 -2.630366
v 0.000000 -0.195090 -2.649212
v -0.195090 -0.191342 -2.630366
v -0.382683 -0.180240 -2.574554
v -0.555570 -0.162212 -2.483920
v -0.707107 -0.137950 -2.361946
v -0.831470 -0.108386 -2.213322
v -0.923880 -0.074658 -2.043757
v -0.980785 -0.038060 -1.859768
v 0.980785 -0.074658 -1.848666
v 0.923880 -0.146447 -2.021980
v 0.831470 -0.212608 -2.181706
v 0.707107 -0.270598 -2.321708
v 0.555570 -0.318190 -2.436604
v 0.382683 -0.353553 -2.521980
v 0.195090 -0.375330 -2.574554
v 0.000000 -0.382684 -2.592306
v -0.195090 -0.375330 -2.574554
v -0.382683 -0.353554 -2.521980
v -0.555570 -0.318190 -2.436604
v -0.707107 -0.270598 -2.321708
v -0.831470 -0.212608 -2.181706
v -0.923880 -0.146447 -2.021980
v -0.980785 -0.074658 -1.848666
v 0.980785 -0.108387 -1.830638
v 0.923880 -0.212608 -1.986616
v 0.831470 -0.308658 -2.130366
v 0.707107 -0.392848 -2.256364
v 0.555570 -0.461940 -2.359768
v 0.382683 -0.513280 -2.436604
v 0.195090 -0.544895 -2.483920
v 0.000000 -0.555570 -2.499896
v -0.195090 -0.544895 -2.483920
v -0.382683 -0.513280 -2.436604
v -0.555570 -0.461940 -2.359768
v -0.707107 -0.392848 -2.256364
v -0.831470 -0.308658 -2.130366
v -0.923880 -0.212608 -1.986616
v -0.980785 -0.108386 -1.830638
v 0.980785 -0.137950 -1.806376
v 0.923880 -0.270598 -1.939024
v 0.831470 -0.392848 -2.061274
v 0.707107 -0.500000 -2.168427
v 0.555570 -0.587938 -2.256364
v 0.382683 -0.653282 -2.321708
v 0.195090 -0.693520 -2.361946
v 0.000000 -0.707107 -2.375533
v -0.195090 -0.693520 -2.361946
v -0.382683 -0.653282 -2.321708
v -0.555570 -0.587938 -2.256364
v -0.707107 -0.500000 -2.168427
v -0.831470 -0.392848 -2.061274
v -0.923880 -0.270598 -1.939024
v -0.980785 -0.137950 -1.806376
v 0.980785 -0.162212 -1.776813
v 0.923880 -0.318190 -1.881034
v 0.831470 -0.461940 -1.977085
v 0.707107 -0.587938 -2.061274
v 0.555570 -0.691342 -2.130366
v 0.382683 -0.768178 -2.181706
v 0.195090 -0.815493 -2.213321
v 0.000000 -0.831470 -2.223997
v -0.195090 -0.815493 -2.213321
v -0.382683 -0.768178 -2.181706
v -0.555570 -0.691342 -2.130366
v -0.707107 -0.587938 -2.061274
v -0.831470 -0.461940 -1.977085
v -0.923880 -0.318190 -1.881034
v -0.980785 -0.162212 -1.776813
v -1.000000 0.000000 0.000000
v 0.980785 -0.180240 -1.743084
v 0.923880 -0.353554 -1.814873
v 0.831470 -0.513280 -1.881034
v 0.707107 -0.653282 -1.939024
v 0.555570 -0.768178 -1.986616
v 0.382683 -0.853554 -2.021980
v 0.195090 -0.906128 -2.043756
v 0.000000 -0.923880 -2.051110
v -0.195090 -0.906128 -2.043756
v -0.382683 -0.853554 -2.021980
v -0.555570 -0.768178 -1.986616
v -0.707107 -0.653282 -1.939024
v -0.831470 -0.513280 -1.881034
v -0.923880 -0.353554 -1.814873
v -0.980785 -0.180240 -1.743084
v 0.980785 -0.191342 -1.706486
v 0.923880 -0.375331 -1.743084
v 0.831470 -0.544895 -1.776813
v 0.707107 -0.693520 -1.806376
v 0.555570 -0.815493 -1.830638
v 0.382683 -0.906128 -1.848666
v 0.195090 -0.961940 -1.859768
v 0.000000 -0.980785 -1.863517
v -0.195090 -0.961940 -1.859768
v -0.382683 -0.906128 -1.848666
v -0.555570 -0.815493 -1.830638
v -0.707107 -0.693520 -1.806376
v -0.831470 -0.544895 -1.776813
v -0.923880 -0.375330 -1.743084
v -0.980785 -0.191342 -1.706486
v 0.980785 -0.195091 0.000000
v 0.923880 -0.382684 0.000000
v 0.831470 -0.555570 0.000000
v 0.707107 -0.707107 0.000000
v 0.555570 -0.831470 0.000000
v 0.382683 -0.923880 0.000000
v 0.195090 -0.980785 0.000000
v 0.000000 -1.000000 0.000000
v -0.195090 -0.980785 0.000000
v -0.382683 -0.923880 0.000000
v -0.555570 -0.831470 0.000000
v -0.707107 -0.707107 0.000000
v -0.831470 -0.555570 0.000000
v -0.923880 -0.382684 0.000000
v -0.980785 -0.195090 0.000000
v 0.980785 -0.191342 0.038061
v 0.923880 -0.375331 0.074658
v 0.831470 -0.544895 0.108387
v 0.707107 -0.693520 0.137950
v 0.555570 -0.815493 0.162212
v 0.382683 -0.906128 0.180240
v 0.195090 -0.961940 0.191342
v 0.000000 -0.980785 0.195091
v -0.195090 -0.961940 0.191342
v -0.382683 -0.906128 0.180240
v -0.555570 -0.815493 0.162212
v -0.707107 -0.693520 0.137950
v -0.831470 -0.544895 0.108387
v -0.923880 -0.375330 0.074658
v -0.980785 -0.191342 0.038061
v 0.980785 -0.180240 0.074658
v 0.923880 -0.353554 0.146447
v 0.831470 -0.513280 0.212608
v 0.707107 -0.653282 0.270598
v 0.555570 -0.768178 0.318190
v 0.382683 -0.853554 0.353554
v 0.195090 -0.906127 0.375331
v 0.000000 -0.923880 0.382684
v -0.195090 -0.906127 0.375331
v -0.382683 -0.853554 0.353554
v -0.555570 -0.768178 0.318190
v -0.707107 -0.653282 0.270598
v -0.831470 -0.513280 0.212608
v -0.923880 -0.353553 0.146447
v -0.980785 -0.180240 0.074658
v 0.980785 -0.162212 0.108387
v 0.923880 -0.318190 0.212608
v 0.831470 -0.461940 0.308659
v 0.707107 -0.587938 0.392848
v 0.555570 -0.691342 0.461940
v 0.382683 -0.768178 0.513280
v 0.195090 -0.815493 0.544895
v 0.000000 -0.831470 0.555571
v -0.195090 -0.815493 0.544895
v -0.382683 -0.768178 0.513280
v -0.555570 -0.691342 0.461940
v -0.707107 -0.587938 0.392848
v -0.831470 -0.461940 0.308659
v -0.923880 -0.318190 0.212608
v -0.980785 -0.162212 0.108387
v 0.980785 -0.137950 0.137950
v 0.923880 -0.270598 0.270599
v 0.831470 -0.392848 0.392848
v 0.707107 -0.500000 0.500000
v 0.555570 -0.587938 0.587938
v 0.382683 -0.653282 0.653282
v 0.195090 -0.693520 0.693520
v 0.000000 -0.707107 0.707107
v -0.195090 -0.693520 0.693520
v -0.382683 -0.653282 0.653282
v -0.555570 -0.587938 0.587938
v -0.707107 -0.500000 0.500000
v -0.831470 -0.392848 0.392848
v -0.923880 -0.270598 0.270598
v -0.980785 -0.137950 0.137950
v 0.980785 -0.108386 0.162212
v 0.923880 -0.212608 0.318190
v 0.831470 -0.308658 0.461940
v 0.707107 -0.392848 0.587938
v 0.555570 -0.461940 0.691342
v 0.382683 -0.513280 0.768178
v 0.195090 -0.544895 0.815493
v 0.000000 -0.555570 0.831470
v -0.195090 -0.544895 0.815493
v -0.382683 -0.513280 0.768178
v -0.555570 -0.461940 0.691342
v -0.707107 -0.392848 0.587938
v -0.831470 -0.308658 0.461940
v -0.923880 -0.212608 0.318190
v -0.980785 -0.108386 0.162212
v 0.980785 -0.074658 0.180240
v 0.923880 -0.146447 0.353554
v 0.831470 -0.212608 0.513280
v 0.707107 -0.270598 0.653282
v 0.555570 -0.318190 0.768178
v 0.382683 -0.353553 0.853554
v 0.195090 -0.375330 0.906128
v 0.000000 -0.382683 0.923880
v -0.195090 -0.375330 0.906128
v -0.382683 -0.353553 0.853554
v -0.555570 -0.318190 0.768178
v -0.707107 -0.270598 0.653282
v -0.831470 -0.212608 0.513280
v -0.923880 -0.146447 0.353554
v -0.980785 -0.074658 0.180240
v 0.980785 -0.038060 0.191342
v 0.923880 -0.074658 0.375331
v 0.831470 -0.108386 0.544896
v 0.707107 -0.137950 0.693520
v 0.555570 -0.162212 0.815493
v 0.382683 -0.180240 0.906128
v 0.195090 -0.191342 0.961940
v 0.000000 -0.195090 0.980786
v -0.195090 -0.191342 0.961940
v -0.382683 -0.180240 0.906128
v -0.555570 -0.162212 0.815493
v -0.707107 -0.137950 0.693520
v -0.831470 -0.108386 0.544895
v -0.923880 -0.074658 0.375331
v -0.980785 -0.038060 0.191342
v 0.980785 0.000000 0.195091
v 0.923880 -0.000000 0.382684
v 0.831470 -0.000000 0.555571
v 0.707107 0.000000 0.707107
v 0.555570 0.000000 0.831470
v 0.382683 -0.000000 0.923880
v 0.195090 0.000000 0.980785
v 0.000000 0.000000 1.000000
v -0.195090 0.000000 0.980785
v -0.382683 -0.000000 0.923880
v -0.555570 0.000000 0.831470
v -0.707107 0.000000 0.707107
v -0.831470 0.000000 0.555570
v -0.923880 -0.000000 0.382684
v -0.980785 -0.000000 0.195091
v 0.980785 0.038060 0.191342
v 0.923880 0.074658 0.375331
v 0.831470 0.108386 0.544896
v 0.707107 0.137950 0.693520
v 0.555570 0.162212 0.815493
v 0.382683 0.180240 0.906128
v 0.195090 0.191342 0.961940
v 0.000000 0.195090 0.980786
v -0.195090 0.191342 0.961940
v -0.382683 0.180240 0.906128
v -0.555570 0.162212 0.815493
v -0.707107 0.137950 0.693520
v -0.831470 0.108386 0.544895
v -0.923880 0.074658 0.375331
v -0.980785 0.038060 0.191342
v 0.980785 0.074658 0.180240
v 0.923880 0.146447 0.353554
v 0.831470 0.212608 0.513280
v 0.707107 0.270598 0.653282
v 0.555570 0.318190 0.768178
v 0.382683 0.353553 0.853554
v 0.195090 0.375330 0.906127
v 0.000000 0.382684 0.923880
v -0.195090 0.375330 0.906127
v -0.382683 0.353553 0.853554
v -0.555570 0.318190 0.768178
v -0.707107 0.270598 0.653282
v -0.831470 0.212608 0.513280
v -0.923880 0.146447 0.353554
v -0.980785 0.074658 0.180240
v 1.000000 0.000000 0.000001
v 0.980785 0.108386 0.162212
v 0.923880 0.212608 0.318190
v 0.831470 0.308658 0.461940
v 0.707107 0.392847 0.587938
v 0.555570 0.461940 0.691342
v 0.382683 0.513280 0.768178
v 0.195090 0.544895 0.815493
v 0.000000 0.555570 0.831470
v -0.195090 0.544895 0.815493
v -0.382683 0.513280 0.768178
v -0.555570 0.461940 0.691342
v -0.707107 0.392847 0.587938
v -0.831470 0.308658 0.461940
v -0.923880 0.212607 0.318190
v -0.980785 0.108386 0.162212
v 0.980785 0.137950 0.137950
v 0.923880 0.270598 0.270598
v 0.831470 0.392848 0.392848
v 0.707107 0.500000 0.500000
v 0.555570 0.587938 0.587938
v 0.382683 0.653281 0.653282
v 0.195090 0.693520 0.693520
v 0.000000 0.707107 0.707107
v -0.195090 0.693520 0.693520
v -0.382683 0.653281 0.653282
v -0.555570 0.587938 0.587938
v -0.707107 0.500000 0.500000
v -0.831470 0.392847 0.392848
v -0.923880 0.270598 0.270598
v -0.980785 0.137950 0.137950
v 0.980785 0.162212 0.108387
v 0.923880 0.318190 0.212608
v 0.831470 0.461940 0.308659
v 0.707107 0.587938 0.392848
v 0.555570 0.691342 0.461940
v 0.382683 0.768178 0.513280
v 0.195090 0.815493 0.544895
v 0.000000 0.831470 0.555570
v -0.195090 0.815493 0.544895
v -0.382683 0.768178 0.513280
v -0.555570 0.691342 0.461940
v -0.707107 0.587938 0.392848
v -0.831470 0.461940 0.308658
v -0.923880 0.318190 0.212608
v -0.980785 0.162212 0.108387
v 0.980785 0.180240 0.074658
v 0.923880 0.353553 0.146447
v 0.831470 0.513280 0.212608
v 0.707107 0.653281 0.270598
v 0.555570 0.768177 0.318190
v 0.382683 0.853553 0.353554
v 0.195090 0.906127 0.375330
v 0.000000 0.923880 0.382684
v -0.195090 0.906127 0.375330
v -0.382683 0.853553 0.353554
v -0.555570 0.768177 0.318190
v -0.707107 0.653281 0.270598
v -0.831470 0.513280 0.212608
v -0.923880 0.353553 0.146447
v -0.980785 0.180240 0.074658
v 0.980785 0.191342 0.038061
v 0.923880 0.375330 0.074658
v 0.831470 0.544895 0.108387
v 0.707107 0.693520 0.137950
v 0.555570 0.815493 0.162212
v 0.382683 0.906127 0.180240
v 0.195090 0.961939 0.191342
v 0.000000 0.980785 0.195090
v -0.195090 0.961939 0.191342
v -0.382683 0.906127 0.180240
v -0.555570 0.815493 0.162212
v -0.707107 0.693520 0.137950
v -0.831470 0.544895 0.108387
v -0.923880 0.375330 0.074658
v -0.980785 0.191342 0.038061
v 0.980785 0.195090 0.000000
v 0.923880 0.382683 0.000000
v 0.831470 0.555570 0.000000
v 0.707107 0.707107 0.000000
v 0.555570 0.831469 0.000000
v 0.382683 0.923879 0.000000
v 0.195090 0.980785 0.000000
v 0.000000 1.000000 0.000000
v -0.195090 0.980785 0.000000
v -0.382683 0.923879 0.000000
v -0.555570 0.831469 0.000000
v -0.707107 0.707107 0.000000
v -0.831470 0.555570 0.000000
v -0.923880 0.382683 0.000000
v -0.980785 0.195090 0.000000
v 0.980785 0.191342 -1.706486
v 0.923880 0.375330 -1.743084
v 0.831470 0.544895 -1.776813
v 0.707107 0.693520 -1.806376
v 0.555570 0.815493 -1.830638
v 0.382683 0.906127 -1.848666
v 0.195090 0.961939 -1.859768
v 0.000000 0.980785 -1.863517
v -0.195090 0.961939 -1.859768
v -0.382683 0.906127 -1.848666
v -0.555570 0.815493 -1.830638
v -0.707107 0.693520 -1.806376
v -0.831470 0.544895 -1.776813
v -0.923880 0.375330 -1.743084
v -0.980785 0.191342 -1.706486
v 0.980785 0.180240 -1.743084
v 0.923880 0.353553 -1.814873
v 0.831470 0.513280 -1.881034
v 0.707107 0.653281 -1.939024
v 0.555570 0.768177 -1.986616
v 0.382683 0.853553 -2.021980
v 0.195090 0.906127 -2.043756
v 0.000000 0.923879 -2.051110
v -0.195090 0.906127 -2.043756
v -0.382683 0.853553 -2.021980
v -0.555570 0.768177 -1.986616
v -0.707107 0.653281 -1.939024
v -0.831470 0.513280 -1.881034
v -0.923880 0.353553 -1.814873
v -0.980785 0.180240 -1.743084
v 0.980785 0.162212 -1.776813
v 0.923880 0.318190 -1.881034
v 0.831470 0.461940 -1.977085
v 0.707107 0.587938 -2.061274
v 0.555570 0.691341 -2.130366
v 0.382683 0.768178 -2.181706
v 0.195090 0.815493 -2.213321
v 0.000000 0.831469 -2.223996
v -0.195090 0.815493 -2.213321
v -0.382683 0.768178 -2.181706
v -0.555570 0.691341 -2.130366
v -0.707107 0.587938 -2.061274
v -0.831470 0.461940 -1.977084
v -0.923880 0.318189 -1.881034
v -0.980785 0.162212 -1.776813
v 0.980785 0.137950 -1.806376
v 0.923880 0.270598 -1.939024
v 0.831470 0.392847 -2.061274
v 0.707107 0.500000 -2.168426
v 0.555570 0.587937 -2.256364
v 0.382683 0.653281 -2.321708
v 0.195090 0.693519 -2.361946
v 0.000000 0.707106 -2.375533
v -0.195090 0.693519 -2.361946
v -0.382683 0.653281 -2.321708
v -0.555570 0.587937 -2.256364
v -0.707107 0.500000 -2.168426
v -0.831470 0.392847 -2.061274
v -0.923880 0.270598 -1.939024
v -0.980785 0.137950 -1.806376
v 0.980785 0.108386 -1.830638
v 0.923880 0.212607 -1.986616
v 0.831470 0.308658 -2.130366
v 0.707107 0.392847 -2.256364
v 0.555570 0.461939 -2.359768
v 0.382683 0.513280 -2.436604
v 0.195090 0.544895 -2.483919
v 0.000000 0.555570 -2.499896
v -0.195090 0.544895 -2.483919
v -0.382683 0.513280 -2.436604
v -0.555570 0.461939 -2.359768
v -0.707107 0.392847 -2.256364
v -0.831470 0.308658 -2.130366
v -0.923880 0.212607 -1.986616
v -0.980785 0.108386 -1.830638
v 0.980785 0.074658 -1.848666
v 0.923880 0.146447 -2.021980
v 0.831470 0.212607 -2.181706
v 0.707107 0.270598 -2.321708
v 0.555570 0.318189 -2.436604
v 0.382683 0.353553 -2.521979
v 0.195090 0.375330 -2.574553
v 0.000000 0.382683 -2.592305
v -0.195090 0.375330 -2.574553
v -0.382683 0.353553 -2.521979
v -0.555570 0.318189 -2.436604
v -0.707107 0.270598 -2.321708
v -0.831470 0.212607 -2.181706
v -0.923880 0.146446 -2.021979
v -0.980785 0.074658 -1.848666
v 0.980785 0.038060 -1.859768
v 0.923880 0.074658 -2.043756
v 0.831470 0.108386 -2.213321
v 0.707107 0.137950 -2.361946
v 0.555570 0.162211 -2.483919
v 0.382683 0.180240 -2.574553
v 0.195090 0.191341 -2.630365
v 0.000000 0.195090 -2.649211
v -0.195090 0.191341 -2.630365
v -0.382683 0.180240 -2.574553
v -0.555570 0.162211 -2.483919
v -0.707107 0.137950 -2.361946
v -0.831470 0.108386 -2.213321
v -0.923880 0.074658 -2.043756
v -0.980785 0.038060 -1.859768
v 0.980785 -0.000000 -1.863517
v 0.923880 -0.000000 -2.051110
v 0.831470 -0.000000 -2.223996
v 0.707107 -0.000000 -2.375533
v 0.555570 -0.000000 -2.499895
v 0.382683 -0.000000 -2.592306
v 0.195090 -0.000000 -2.649211
v 0.000000 -0.000000 -2.668426
v -0.195090 -0.000000 -2.649211
v -0.382683 -0.000000 -2.592306
v -0.555570 -0.000000 -2.499895
v -0.707107 -0.000000 -2.375533
v -0.831470 -0.000000 -2.223996
v -0.923880 -0.000000 -2.051109
v -0.980785 -0.000000 -1.863516
s off
f 468 272 1
f 76 482 15
f 476 475 8 9
f 469 468 1 2
f 477 476 9 10
f 470 469 2 3
f 478 477 10 11
f 471 470 3 4
f 479 478 11 12
f 472 471 4 5
f 480 479 12 13
f 473 472 5 6
f 481 480 13 14
f 474 473 6 7
f 482 481 14 15
f 475 474 7 8
f 15 14 29 30
f 8 7 22 23
f 1 272 16
f 76 15 30
f 9 8 23 24
f 2 1 16 17
f 10 9 24 25
f 3 2 17 18
f 11 10 25 26
f 4 3 18 19
f 12 11 26 27
f 5 4 19 20
f 13 12 27 28
f 6 5 20 21
f 14 13 28 29
f 7 6 21 22
f 19 18 33 34
f 27 26 41 42
f 20 19 34 35
f 28 27 42 43
f 21 20 35 36
f 29 28 43 44
f 22 21 36 37
f 30 29 44 45
f 23 22 37 38
f 16 272 31
f 76 30 45
f 24 23 38 39
f 17 16 31 32
f 25 24 39 40
f 18 17 32 33
f 26 25 40 41
f 38 37 52 53
f 31 272 46
f 76 45 60
f 39 38 53 54
f 32 31 46 47
f 40 39 54 55
f 33 32 47 48
f 41 40 55 56
f 34 33 48 49
f 42 41 56 57
f 35 34 49 50
f 43 42 57 58
f 36 35 50 51
f 44 43 58 59
f 37 36 51 52
f 45 44 59 60
f 57 56 71 72
f 50 49 64 65
f 58 57 72 73
f 51 50 65 66
f 59 58 73 74
f 52 51 66 67
f 60 59 74 75
f 53 52 67 68
f 46 272 61
f 76 60 75
f 54 53 68 69
f 47 46 61 62
f 55 54 69 70
f 48 47 62 63
f 56 55 70 71
f 49 48 63 64
f 61 272 77
f 76 75 91
f 69 68 84 85
f 62 61 77 78
f 70 69 85 86
f 63 62 78 79
f 71 70 86 87
f 64 63 79 80
f 72 71 87 88
f 65 64 80 81
f 73 72 88 89
f 66 65 81 82
f 74 73 89 90
f 67 66 82 83
f 75 74 90 91
f 68 67 83 84
f 81 80 95 96
f 89 88 103 104
f 82 81 96 97
f 90 89 104 105
f 83 82 97 98
f 91 90 105 106
f 84 83 98 99
f 77 272 92
f 76 91 106
f 85 84 99 100
f 78 77 92 93
f 86 85 100 101
f 79 78 93 94
f 87 86 101 102
f 80 79 94 95
f 88 87 102 103
f 100 99 114 115
f 93 92 107 108
f 101 100 115 116
f 94 93 108 109
f 102 101 116 117
f 95 94 109 110
f 103 102 117 118
f 96 95 110 111
f 104 103 118 119
f 97 96 111 112
f 105 104 119 120
f 98 97 112 113
f 106 105 120 121
f 99 98 113 114
f 92 272 107
f 76 106 121
f 119 118 133 134
f 112 111 126 127
f 120 119 134 135
f 113 112 127 128
f 121 120 135 136
f 114 113 128 129
f 107 272 122
f 76 121 136
f 115 114 129 130
f 108 107 122 123
f 116 115 130 131
f 109 108 123 124
f 117 116 131 132
f 110 109 124 125
f 118 117 132 133
f 111 110 125 126
f 131 130 145 146
f 124 123 138 139
f 132 131 146 147
f 125 124 139 140
f 133 132 147 148
f 126 125 140 141
f 134 133 148 149
f 127 126 141 142
f 135 134 149 150
f 128 127 142 143
f 136 135 150 151
f 129 128 143 144
f 122 272 137
f 76 136 151
f 130 129 144 145
f 123 122 137 138
f 150 149 164 165
f 143 142 157 158
f 151 150 165 166
f 144 143 158 159
f 137 272 152
f 76 151 166
f 145 144 159 160
f 138 137 152 153
f 146 145 160 161
f 139 138 153 154
f 147 146 161 162
f 140 139 154 155
f 148 147 162 163
f 141 140 155 156
f 149 148 163 164
f 142 141 156 157
f 154 153 168 169
f 162 161 176 177
f 155 154 169 170
f 163 162 177 178
f 156 155 170 171
f 164 163 178 179
f 157 156 171 172
f 165 164 179 180
f 158 157 172 173
f 166 165 180 181
f 159 158 173 174
f 152 272 167
f 76 166 181
f 160 159 174 175
f 153 152 167 168
f 161 160 175 176
f 173 172 187 188
f 181 180 195 196
f 174 173 188 189
f 167 272 182
f 76 181 196
f 175 174 189 190
f 168 167 182 183
f 176 175 190 191
f 169 168 183 184
f 177 176 191 192
f 170 169 184 185
f 178 177 192 193
f 171 170 185 186
f 179 178 193 194
f 172 171 186 187
f 180 179 194 195
f 192 191 206 207
f 185 184 199 200
f 193 192 207 208
f 186 185 200 201
f 194 193 208 209
f 187 186 201 202
f 195 194 209 210
f 188 187 202 203
f 196 195 210 211
f 189 188 203 204
f 182 272 197
f 76 196 211
f 190 189 204 205
f 183 182 197 198
f 191 190 205 206
f 184 183 198 199
f 211 210 225 226
f 204 203 218 219
f 197 272 212
f 76 211 226
f 205 204 219 220
f 198 197 212 213
f 206 205 220 221
f 199 198 213 214
f 207 206 221 222
f 200 199 214 215
f 208 207 222 223
f 201 200 215 216
f 209 208 223 224
f 202 201 216 217
f 210 209 224 225
f 203 202 217 218
f 215 214 229 230
f 223 222 237 238
f 216 215 230 231
f 224 223 238 239
f 217 216 231 232
f 225 224 239 240
f 218 217 232 233
f 226 225 240 241
f 219 218 233 234
f 212 272 227
f 76 226 241
f 220 219 234 235
f 213 212 227 228
f 221 220 235 236
f 214 213 228 229
f 222 221 236 237
f 234 233 248 249
f 227 272 242
f 76 241 256
f 235 234 249 250
f 228 227 242 243
f 236 235 250 251
f 229 228 243 244
f 237 236 251 252
f 230 229 244 245
f 238 237 252 253
f 231 230 245 246
f 239 238 253 254
f 232 231 246 247
f 240 239 254 255
f 233 232 247 248
f 241 240 255 256
f 253 252 267 268
f 246 245 260 261
f 254 253 268 269
f 247 246 261 262
f 255 254 269 270
f 248 247 262 263
f 256 255 270 271
f 249 248 263 264
f 242 272 257
f 76 256 271
f 250 249 264 265
f 243 242 257 258
f 251 250 265 266
f 244 243 258 259
f 252 251 266 267
f 245 244 259 260
f 76 271 287
f 265 264 280 281
f 258 257 273 274
f 266 265 281 282
f 259 258 274 275
f 267 266 282 283
f 260 259 275 276
f 268 267 283 284
f 261 260 276 277
f 269 268 284 285
f 262 261 277 278
f 270 269 285 286
f 263 262 278 279
f 271 270 286 287
f 264 263 279 280
f 257 272 273
f 285 284 299 300
f 278 277 292 293
f 286 285 300 301
f 279 278 293 294
f 287 286 301 302
f 280 279 294 295
f 273 272 288
f 76 287 302
f 281 280 295 296
f 274 273 288 289
f 282 281 296 297
f 275 274 289 290
f 283 282 297 298
f 276 275 290 291
f 284 283 298 299
f 277 276 291 292
f 289 288 303 304
f 297 296 311 312
f 290 289 304 305
f 298 297 312 313
f 291 290 305 306
f 299 298 313 314
f 292 291 306 307
f 300 299 314 315
f 293 292 307 308
f 301 300 315 316
f 294 293 308 309
f 302 301 316 317
f 295 294 309 310
f 288 272 303
f 76 302 317
f 296 295 310 311
f 308 307 322 323
f 316 315 330 331
f 309 308 323 324
f 317 316 331 332
f 310 309 324 325
f 303 272 318
f 76 317 332
f 311 310 325 326
f 304 303 318 319
f 312 311 326 327
f 305 304 319 320
f 313 312 327 328
f 306 305 320 321
f 314 313 328 329
f 307 306 321 322
f 315 314 329 330
f 327 326 341 342
f 320 319 334 335
f 328 327 342 343
f 321 320 335 336
f 329 328 343 344
f 322 321 336 337
f 330 329 344 345
f 323 322 337 338
f 331 330 345 346
f 324 323 338 339
f 332 331 346 347
f 325 324 339 340
f 318 272 333
f 76 332 347
f 326 325 340 341
f 319 318 333 334
f 346 345 360 361
f 339 338 353 354
f 347 346 361 362
f 340 339 354 355
f 333 272 348
f 76 347 362
f 341 340 355 356
f 334 333 348 349
f 342 341 356 357
f 335 334 349 350
f 343 342 357 358
f 336 335 350 351
f 344 343 358 359
f 337 336 351 352
f 345 344 359 360
f 338 337 352 353
f 350 349 364 365
f 358 357 372 373
f 351 350 365 366
f 359 358 373 374
f 352 351 366 367
f 360 359 374 375
f 353 352 367 368
f 361 360 375 376
f 354 353 368 369
f 362 361 376 377
f 355 354 369 370
f 348 272 363
f 76 362 377
f 356 355 370 371
f 349 348 363 364
f 357 356 371 372
f 369 368 383 384
f 377 376 391 392
f 370 369 384 385
f 363 272 378
f 76 377 392
f 371 370 385 386
f 364 363 378 379
f 372 371 386 387
f 365 364 379 380
f 373 372 387 388
f 366 365 380 381
f 374 373 388 389
f 367 366 381 382
f 375 374 389 390
f 368 367 382 383
f 376 375 390 391
f 388 387 402 403
f 381 380 395 396
f 389 388 403 404
f 382 381 396 397
f 390 389 404 405
f 383 382 397 398
f 391 390 405 406
f 384 383 398 399
f 392 391 406 407
f 385 384 399 400
f 378 272 393
f 76 392 407
f 386 385 400 401
f 379 378 393 394
f 387 386 401 402
f 380 379 394 395
f 407 406 421 422
f 400 399 414 415
f 393 272 408
f 76 407 422
f 401 400 415 416
f 394 393 408 409
f 402 401 416 417
f 395 394 409 410
f 403 402 417 418
f 396 395 410 411
f 404 403 418 419
f 397 396 411 412
f 405 404 419 420
f 398 397 412 413
f 406 405 420 421
f 399 398 413 414
f 419 418 433 434
f 412 411 426 427
f 420 419 434 435
f 413 412 427 428
f 421 420 435 436
f 414 413 428 429
f 422 421 436 437
f 415 414 429 430
f 408 272 423
f 76 422 437
f 416 415 430 431
f 409 408 423 424
f 417 416 431 432
f 410 409 424 425
f 418 417 432 433
f 411 410 425 426
f 423 272 438
f 76 437 452
f 431 430 445 446
f 424 423 438 439
f 432 431 446 447
f 425 424 439 440
f 433 432 447 448
f 426 425 440 441
f 434 433 448 449
f 427 426 441 442
f 435 434 449 450
f 428 427 442 443
f 436 435 450 451
f 429 428 443 444
f 437 436 451 452
f 430 429 444 445
f 442 441 456 457
f 450 449 464 465
f 443 442 457 458
f 451 450 465 466
f 444 443 458 459
f 452 451 466 467
f 445 444 459 460
f 438 272 453
f 76 452 467
f 446 445 460 461
f 439 438 453 454
f 447 446 461 462
f 440 439 454 455
f 448 447 462 463
f 441 440 455 456
f 449 448 463 464
f 461 460 475 476
f 454 453 468 469
f 462 461 476 477
f 455 454 469 470
f 463 462 477 478
f 456 455 470 471
f 464 463 478 479
f 457 456 471 472
f 465 464 479 480
f 458 457 472 473
f 466 465 480 481
f 459 458 473 474
f 467 466 481 482
f 460 459 474 475
f 453 272 468
f 76 467 482
