%YAML 1.1
%TAG !u! tag:unity3d.com,2011:
--- !u!114 &11400000
MonoBehaviour:
  m_ObjectHideFlags: 0
  m_CorrespondingSourceObject: {fileID: 0}
  m_PrefabInternal: {fileID: 0}
  m_GameObject: {fileID: 0}
  m_Enabled: 1
  m_EditorHideFlags: 0
  m_Script: {fileID: 11500000, guid: 1ec7ee4422a0962488aefec9a178ab1f, type: 3}
  m_Name: LEVEL01_CLICK
  m_EditorClassIdentifier: 
  onEnterActions:
  - {fileID: 11400000, guid: dcfc95eae65cf3a4baf7c4b4068989b5, type: 2}
  - {fileID: 11400000, guid: ee481f24a8b0c6b48b014dde3cf7b557, type: 2}
  onExecuteActions: []
  onExitActions:
  - {fileID: 11400000, guid: f21449e7db84bec4993b6a0ba510fedd, type: 2}
  transitions: []
