%YAML 1.1
%TAG !u! tag:unity3d.com,2011:
--- !u!114 &11400000
MonoBehaviour:
  m_ObjectHideFlags: 0
  m_CorrespondingSourceObject: {fileID: 0}
  m_PrefabInternal: {fileID: 0}
  m_GameObject: {fileID: 0}
  m_Enabled: 1
  m_EditorHideFlags: 0
  m_Script: {fileID: 11500000, guid: dd57cbd0f1c556344822b138d5e2372b, type: 3}
  m_Name: LigandA
  m_EditorClassIdentifier: 
  name: Ligand A
  layerMask:
    serializedVersion: 2
    m_Bits: 512
  ligandMols: []
  spawnMol: {fileID: 0}
  radius: 0.5
