%YAML 1.1
%TAG !u! tag:unity3d.com,2011:
--- !u!114 &11400000
MonoBehaviour:
  m_ObjectHideFlags: 0
  m_CorrespondingSourceObject: {fileID: 0}
  m_PrefabInternal: {fileID: 0}
  m_GameObject: {fileID: 0}
  m_Enabled: 1
  m_EditorHideFlags: 0
  m_Script: {fileID: 11500000, guid: 1ec7ee4422a0962488aefec9a178ab1f, type: 3}
  m_Name: MOLECULE_PROCESSING
  m_EditorClassIdentifier: 
  onEnterActions:
  - {fileID: 11400000, guid: b77745176e01634459e7f9eb6c1bc55d, type: 2}
  onExecuteActions:
  - {fileID: 11400000, guid: 4e306cc21d7769c4eb2bf7d024e530b6, type: 2}
  onExitActions:
  - {fileID: 11400000, guid: fff376a22a522a7458af5efb40d84690, type: 2}
  transitions: []
