%YAML 1.1
%TAG !u! tag:unity3d.com,2011:
--- !u!21 &2100000
Material:
  serializedVersion: 6
  m_ObjectHideFlags: 0
  m_PrefabParentObject: {fileID: 0}
  m_PrefabInternal: {fileID: 0}
  m_Name: calibrationMaterial 1
  m_Shader: {fileID: 4800000, guid: a30645bd7a4f3b14dbe029d5f6ad1c3a, type: 3}
  m_ShaderKeywords: _EMISSION _SMOOTHNESS_TEXTURE_ALBEDO_CHANNEL_A
  m_LightmapFlags: 0
  m_EnableInstancingVariants: 0
  m_DoubleSidedGI: 0
  m_CustomRenderQueue: 3005
  stringTagMap: {}
  disabledShaderPasses: []
  m_SavedProperties:
    serializedVersion: 3
    m_TexEnvs:
    - _BumpMap:
        m_Texture: {fileID: 0}
        m_Scale: {x: 1, y: 1}
        m_Offset: {x: 0, y: 0}
    - _Cube:
        m_Texture: {fileID: 8900000, guid: 1ff70a10a571db6429da952523f77498, type: 3}
        m_Scale: {x: 1, y: 1}
        m_Offset: {x: 0, y: 0}
    - _Detail:
        m_Texture: {fileID: 0}
        m_Scale: {x: 1, y: 1}
        m_Offset: {x: 0, y: 0}
    - _DetailAlbedoMap:
        m_Texture: {fileID: 0}
        m_Scale: {x: 1, y: 1}
        m_Offset: {x: 0, y: 0}
    - _DetailMask:
        m_Texture: {fileID: 0}
        m_Scale: {x: 1, y: 1}
        m_Offset: {x: 0, y: 0}
    - _DetailNormalMap:
        m_Texture: {fileID: 0}
        m_Scale: {x: 1, y: 1}
        m_Offset: {x: 0, y: 0}
    - _EmissionMap:
        m_Texture: {fileID: 0}
        m_Scale: {x: 1, y: 1}
        m_Offset: {x: 0, y: 0}
    - _HeatTex:
        m_Texture: {fileID: 0}
        m_Scale: {x: 1, y: 1}
        m_Offset: {x: 0, y: 0}
    - _Illum:
        m_Texture: {fileID: 0}
        m_Scale: {x: 1, y: 1}
        m_Offset: {x: 0, y: 0}
    - _MainTex:
        m_Texture: {fileID: 2800000, guid: 27b29e71b95447e408e64916110fd9af, type: 3}
        m_Scale: {x: 1, y: 1}
        m_Offset: {x: 0, y: 0}
    - _MetallicGlossMap:
        m_Texture: {fileID: 0}
        m_Scale: {x: 1, y: 1}
        m_Offset: {x: 0, y: 0}
    - _OcclusionMap:
        m_Texture: {fileID: 0}
        m_Scale: {x: 1, y: 1}
        m_Offset: {x: 0, y: 0}
    - _ParallaxMap:
        m_Texture: {fileID: 0}
        m_Scale: {x: 1, y: 1}
        m_Offset: {x: 0, y: 0}
    - _SpecGlossMap:
        m_Texture: {fileID: 0}
        m_Scale: {x: 1, y: 1}
        m_Offset: {x: 0, y: 0}
    m_Floats:
    - _BumpScale: 1
    - _Cutoff: 0.5
    - _DetailNormalMapScale: 1
    - _DstBlend: 0
    - _Emission: 1
    - _GlossMapScale: 1
    - _Glossiness: 0.274
    - _GlossyReflections: 1
    - _HFillSpeed: 0
    - _HOpacity: 1
    - _Intensity: 0.2
    - _InvFade: 1
    - _Metallic: 1
    - _Mode: 0
    - _OcclusionStrength: 1
    - _Parallax: 0.02
    - _Radius: 0.2
    - _RefIntensity: 2.58
    - _RimPower: 2.22
    - _Shininess: 0.7
    - _SmoothnessTextureChannel: 1
    - _SpecularHighlights: 1
    - _SrcBlend: 1
    - _UVSec: 0
    - _VertPush: 0
    - _ZWrite: 1
    - _rimPower: 2.07
    m_Colors:
    - _Color: {r: 1, g: 0, b: 0, a: 1}
    - _Emission: {r: 0, g: 0, b: 0, a: 0}
    - _EmissionColor: {r: 0.26957625, g: 3.618, b: 0, a: 1}
    - _RimColor: {r: 1, g: 0.7169118, b: 0.5955882, a: 0}
    - _SpecColor: {r: 1, g: 1, b: 1, a: 1}
    - _Tint: {r: 1, g: 1, b: 1, a: 1}
    - _TintColor: {r: 0.5, g: 0.5, b: 0.5, a: 0.5}
