%YAML 1.1
%TAG !u! tag:unity3d.com,2011:
--- !u!114 &11400000
MonoBehaviour:
  m_ObjectHideFlags: 0
  m_CorrespondingSourceObject: {fileID: 0}
  m_PrefabInternal: {fileID: 0}
  m_GameObject: {fileID: 0}
  m_Enabled: 1
  m_EditorHideFlags: 0
  m_Script: {fileID: 11500000, guid: b5966a41bfb03cf4da54d662d4be349d, type: 3}
  m_Name: PlayTimeline01
  m_EditorClassIdentifier: 
  timelineAsset: {fileID: 11400000, guid: a3281b5c00695164db4a93a3a528bea5, type: 2}
  wrapMode: 2
