%YAML 1.1
%TAG !u! tag:unity3d.com,2011:
--- !u!114 &11400000
MonoBehaviour:
  m_ObjectHideFlags: 0
  m_CorrespondingSourceObject: {fileID: 0}
  m_PrefabInternal: {fileID: 0}
  m_GameObject: {fileID: 0}
  m_Enabled: 1
  m_EditorHideFlags: 0
  m_Script: {fileID: 11500000, guid: 9ae883c423fab954db97b89d5cf2beb1, type: 3}
  m_Name: Spawn_galactoside_acetyltransferase
  m_EditorClassIdentifier: 
  moleculePrefab: {fileID: 1132367664180874, guid: c1d4b29e590aeea42ab123f8a97915e9,
    type: 2}
  spawnMolecule: {fileID: 0}
  ligand: {fileID: 0}
  spawnAtActiveSite: 0
  parentToSite: 0
  parentToLigand: 0
