%YAML 1.1
%TAG !u! tag:unity3d.com,2011:
--- !u!114 &11400000
MonoBehaviour:
  m_ObjectHideFlags: 0
  m_CorrespondingSourceObject: {fileID: 0}
  m_PrefabInternal: {fileID: 0}
  m_GameObject: {fileID: 0}
  m_Enabled: 1
  m_EditorHideFlags: 0
  m_Script: {fileID: 11500000, guid: dd57cbd0f1c556344822b138d5e2372b, type: 3}
  m_Name: lac promoter holder
  m_EditorClassIdentifier: 
  name: 
  layerMask:
    serializedVersion: 2
    m_Bits: 512
  model: {fileID: 0}
  tobiiModel: {fileID: 0}
  ligandMols:
  - {fileID: 11400000, guid: 255a365834ea78c418b4272b8d2fd412, type: 2}
  bindActions:
  - {fileID: 11400000, guid: 9d40297d990c6a54e9a7ac8eb0f33bae, type: 2}
  - {fileID: 11400000, guid: 9d7311b99d7753d4ba0e3cddc0b3d48b, type: 2}
  spawnActions:
  - {fileID: 11400000, guid: ccb65507283fc1a4db3349bd0ea9dab6, type: 2}
  radius: 0.25
  contrainTransform: 0
  cooldownTime: 0
  maxNumber: 1
  pool: 1
  material: {fileID: 0}
