%YAML 1.1
%TAG !u! tag:unity3d.com,2011:
--- !u!114 &11400000
MonoBehaviour:
  m_ObjectHideFlags: 0
  m_CorrespondingSourceObject: {fileID: 0}
  m_PrefabInternal: {fileID: 0}
  m_GameObject: {fileID: 0}
  m_Enabled: 1
  m_EditorHideFlags: 0
  m_Script: {fileID: 11500000, guid: 397f2a14734bd4d439ef5c2a4d2a0f76, type: 3}
  m_Name: HighGlucose_LowLactose
  m_EditorClassIdentifier: 
  glucoseCount: 20
  lactoseCount: 0
