%YAML 1.1
%TAG !u! tag:unity3d.com,2011:
--- !u!114 &11400000
MonoBehaviour:
  m_ObjectHideFlags: 0
  m_CorrespondingSourceObject: {fileID: 0}
  m_PrefabInternal: {fileID: 0}
  m_GameObject: {fileID: 0}
  m_Enabled: 1
  m_EditorHideFlags: 0
  m_Script: {fileID: 11500000, guid: dd57cbd0f1c556344822b138d5e2372b, type: 3}
  m_Name: ATP
  m_EditorClassIdentifier: 
  name: ATP
  layerMask:
    serializedVersion: 2
    m_Bits: 512
  model: {fileID: 1218386489758598, guid: dcc199ce857788143a39148c4bea94b8, type: 2}
  tobiiModel: {fileID: 1660031341153660, guid: 08c9f589fd3b22249b89a8200b8fc484, type: 2}
  ligandMols: []
  bindActions: []
  spawnActions: []
  radius: 0.5
  contrainTransform: 0
  cooldownTime: 0
  maxNumber: 10
  pool: 1
