%YAML 1.1
%TAG !u! tag:unity3d.com,2011:
--- !u!114 &11400000
MonoBehaviour:
  m_ObjectHideFlags: 0
  m_CorrespondingSourceObject: {fileID: 0}
  m_PrefabInternal: {fileID: 0}
  m_GameObject: {fileID: 0}
  m_Enabled: 1
  m_EditorHideFlags: 0
  m_Script: {fileID: 11500000, guid: 1ec7ee4422a0962488aefec9a178ab1f, type: 3}
  m_Name: LEVEL02_HOVER_OUT
  m_EditorClassIdentifier: 
  onEnterActions:
  - {fileID: 11400000, guid: f21449e7db84bec4993b6a0ba510fedd, type: 2}
  - {fileID: 11400000, guid: 687663b142128d34eac3e6efdf0fe665, type: 2}
  - {fileID: 11400000, guid: 94173dccecbbdb0468aa26cd3ed6dcbd, type: 2}
  onExecuteActions: []
  onExitActions: []
  transitions: []
