%YAML 1.1
%TAG !u! tag:unity3d.com,2011:
--- !u!114 &11400000
MonoBehaviour:
  m_ObjectHideFlags: 0
  m_CorrespondingSourceObject: {fileID: 0}
  m_PrefabInternal: {fileID: 0}
  m_GameObject: {fileID: 0}
  m_Enabled: 1
  m_EditorHideFlags: 0
  m_Script: {fileID: 11500000, guid: dd57cbd0f1c556344822b138d5e2372b, type: 3}
  m_Name: CRP protein free
  m_EditorClassIdentifier: 
  name: CAP protein
  layerMask:
    serializedVersion: 2
    m_Bits: 512
  model: {fileID: 1076892631947948, guid: e306f3be2331959419bd59b1fe4c9d17, type: 2}
  tobiiModel: {fileID: 1335277649678480, guid: 9515c73f61b768a45b9e73bb4e33d0c5, type: 2}
  ligandMols:
  - {fileID: 11400000, guid: 2da21edcf6164b345804464b838a3267, type: 2}
  bindActions:
  - {fileID: 11400000, guid: d631293cf8cbca14b906d5852fab2cf1, type: 2}
  - {fileID: 11400000, guid: 13672c7bc78ad7b4bbd63078171d6463, type: 2}
  spawnActions: []
  radius: 0.5
  contrainTransform: 0
  cooldownTime: 0
  maxNumber: 10
  pool: 1
  material: {fileID: 0}
  disableRandomMotion: 0
