%YAML 1.1
%TAG !u! tag:unity3d.com,2011:
--- !u!114 &11400000
MonoBehaviour:
  m_ObjectHideFlags: 0
  m_CorrespondingSourceObject: {fileID: 0}
  m_PrefabInternal: {fileID: 0}
  m_GameObject: {fileID: 0}
  m_Enabled: 1
  m_EditorHideFlags: 0
  m_Script: {fileID: 11500000, guid: dd57cbd0f1c556344822b138d5e2372b, type: 3}
  m_Name: permease holder
  m_EditorClassIdentifier: 
  name: galactoside permease
  layerMask:
    serializedVersion: 2
    m_Bits: 512
  model: {fileID: 1218386489758598, guid: fad0f2c0f928cae4c801cc1187ebcbc6, type: 2}
  tobiiModel: {fileID: 1218386489758598, guid: fad0f2c0f928cae4c801cc1187ebcbc6, type: 2}
  ligandMols:
  - {fileID: 11400000, guid: 511f6cf1f9d81784ab50a27212efb40e, type: 2}
  bindActions:
  - {fileID: 11400000, guid: e0f80a111c8d4a147b0715532f588bc5, type: 2}
  - {fileID: 11400000, guid: 97348598461a7ad47a6cb6a83484bac3, type: 2}
  spawnActions: []
  radius: 100
  contrainTransform: 0
  cooldownTime: 0
  maxNumber: 10
  pool: 1
