%YAML 1.1
%TAG !u! tag:unity3d.com,2011:
--- !u!114 &11400000
MonoBehaviour:
  m_ObjectHideFlags: 0
  m_CorrespondingSourceObject: {fileID: 0}
  m_PrefabInternal: {fileID: 0}
  m_GameObject: {fileID: 0}
  m_Enabled: 1
  m_EditorHideFlags: 0
  m_Script: {fileID: 11500000, guid: 15414ae4955af2e469c4bfc64ff52ea0, type: 3}
  m_Name: GrowRNAaction I
  m_EditorClassIdentifier: 
  mRNAtype: {fileID: 11400000, guid: 42bba656d847ca94abb2ad942119d9a7, type: 2}
  group: 1
